*** Life<ConwayCell> 6x3 ***

Generation = 0, Population = 17.
***
***
.**
***
***
***

Generation = 2, Population = 0.
...
...
...
...
...
...

*** Life<ConwayCell> 1x20 ***

Generation = 0, Population = 13.
.**.*.****....******

Generation = 2, Population = 2.
................**..

Generation = 4, Population = 0.
....................

Generation = 6, Population = 0.
....................

Generation = 8, Population = 0.
....................

Generation = 10, Population = 0.
....................

Generation = 12, Population = 0.
....................

Generation = 14, Population = 0.
....................

*** Life<ConwayCell> 2x14 ***

Generation = 0, Population = 20.
.***...*****.*
*.***.******.*

Generation = 1, Population = 7.
.*..*.*....*..
....*.*....*..

Generation = 2, Population = 0.
..............
..............

Generation = 3, Population = 0.
..............
..............

Generation = 4, Population = 0.
..............
..............

Generation = 5, Population = 0.
..............
..............

Generation = 6, Population = 0.
..............
..............

Generation = 7, Population = 0.
..............
..............

Generation = 8, Population = 0.
..............
..............

*** Life<ConwayCell> 8x15 ***

Generation = 0, Population = 30.
....**...*...*.
...**..**.....*
.*......*.**..*
.......*.....*.
*.*...*.....***
.....*.........
.........**.*.*
.....**.......*

Generation = 1, Population = 30.
...***..*......
...***.**.*..**
........**...**
.*.....*...*...
......*.....***
...........**.*
.....**......*.
.............*.

Generation = 2, Population = 28.
...*.*****.....
...*.***.....**
....*.*..**.***
.......**......
..............*
.....**....*..*
.............**
...............

Generation = 3, Population = 19.
.....*..*......
...*......*.*.*
....*....*..*.*
.......***....*
......**.......
..............*
.............**
...............

Generation = 4, Population = 17.
...............
....*....*.*...
.........***..*
......**.*...*.
......**.......
.............**
.............**
...............

*** Life<ConwayCell> 9x19 ***

Generation = 0, Population = 10.
.........*.........
.........*......*..
...................
................*..
*....*............*
..........*........
...................
........*..........
..................*

Generation = 1, Population = 0.
...................
...................
...................
...................
...................
...................
...................
...................
...................

Generation = 2, Population = 0.
...................
...................
...................
...................
...................
...................
...................
...................
...................

Generation = 3, Population = 0.
...................
...................
...................
...................
...................
...................
...................
...................
...................

Generation = 4, Population = 0.
...................
...................
...................
...................
...................
...................
...................
...................
...................

Generation = 5, Population = 0.
...................
...................
...................
...................
...................
...................
...................
...................
...................

Generation = 6, Population = 0.
...................
...................
...................
...................
...................
...................
...................
...................
...................

Generation = 7, Population = 0.
...................
...................
...................
...................
...................
...................
...................
...................
...................

Generation = 8, Population = 0.
...................
...................
...................
...................
...................
...................
...................
...................
...................

Generation = 9, Population = 0.
...................
...................
...................
...................
...................
...................
...................
...................
...................

Generation = 10, Population = 0.
...................
...................
...................
...................
...................
...................
...................
...................
...................

Generation = 11, Population = 0.
...................
...................
...................
...................
...................
...................
...................
...................
...................

Generation = 12, Population = 0.
...................
...................
...................
...................
...................
...................
...................
...................
...................

*** Life<ConwayCell> 3x20 ***

Generation = 0, Population = 42.
**.*.****.**..*****.
********.**.*.**...*
**.**.***.*..*****.*

Generation = 2, Population = 11.
...........***...**.
..............***..*
...........**.......

Generation = 4, Population = 6.
.............*....*.
..................*.
..............**.*..

Generation = 6, Population = 0.
....................
....................
....................

Generation = 8, Population = 0.
....................
....................
....................

Generation = 10, Population = 0.
....................
....................
....................

Generation = 12, Population = 0.
....................
....................
....................

*** Life<ConwayCell> 2x17 ***

Generation = 0, Population = 14.
.*....*..*.*..**.
***.*..*..*...*.*

Generation = 2, Population = 8.
*.*...........**.
*.*...........**.

Generation = 4, Population = 4.
..............**.
..............**.

Generation = 6, Population = 4.
..............**.
..............**.

Generation = 8, Population = 4.
..............**.
..............**.

*** Life<ConwayCell> 6x1 ***

Generation = 0, Population = 6.
*
*
*
*
*
*

Generation = 1, Population = 4.
.
*
*
*
*
.

Generation = 2, Population = 2.
.
.
*
*
.
.

*** Life<ConwayCell> 3x12 ***

Generation = 0, Population = 15.
*...*....***
.**....**.*.
**..*..*..*.

Generation = 1, Population = 15.
.*......****
..**...**...
***....***..

Generation = 2, Population = 12.
..*....****.
*..*........
.***...*.*..

Generation = 3, Population = 8.
........**..
...*...*..*.
.***........

Generation = 4, Population = 7.
........**..
...*....**..
..**........

Generation = 5, Population = 8.
........**..
..**....**..
..**........

Generation = 6, Population = 8.
........**..
..**....**..
..**........

Generation = 7, Population = 8.
........**..
..**....**..
..**........

Generation = 8, Population = 8.
........**..
..**....**..
..**........

Generation = 9, Population = 8.
........**..
..**....**..
..**........

Generation = 10, Population = 8.
........**..
..**....**..
..**........

Generation = 11, Population = 8.
........**..
..**....**..
..**........

Generation = 12, Population = 8.
........**..
..**....**..
..**........

Generation = 13, Population = 8.
........**..
..**....**..
..**........

Generation = 14, Population = 8.
........**..
..**....**..
..**........

Generation = 15, Population = 8.
........**..
..**....**..
..**........

Generation = 16, Population = 8.
........**..
..**....**..
..**........

*** Life<ConwayCell> 8x10 ***

Generation = 0, Population = 41.
*.**..****
*..*...*..
..*...****
**.*.****.
.**....***
******...*
....**....
*.**...**.

Generation = 1, Population = 27.
.***..***.
...*......
*.****...*
*..*.*....
.........*
*....**..*
*....**.*.
...**.....

Generation = 2, Population = 26.
..**...*..
.....****.
.**..*....
.***.*....
....***...
.....*****
......**..
....**....

Generation = 3, Population = 22.
.......**.
.*.***.**.
.*.*.*.*..
.*.*......
..**....*.
....*...*.
....*.....
.....**...

Generation = 4, Population = 20.
....*.***.
...*.*....
**.*.*.**.
.*.*......
..***.....
....*.....
....*.....
.....*....

Generation = 5, Population = 19.
....****..
..**.*....
**.*..*...
**........
..*.*.....
....**....
....**....
..........

Generation = 6, Population = 19.
...****...
.***...*..
*..**.....
*..*......
.*.***....
..........
....**....
..........

Generation = 7, Population = 15.
...****...
.*....*...
*...*.....
**...*....
..***.....
...*......
..........
..........

Generation = 8, Population = 18.
....***...
...*..*...
*....*....
***..*....
.****.....
..***.....
..........
..........

Generation = 9, Population = 16.
....***...
......*...
*.*.***...
*....*....
*....*....
.*..*.....
...*......
..........

Generation = 10, Population = 13.
.....**...
...*...*..
.*..*.*...
*.........
**..**....
....*.....
..........
..........

Generation = 11, Population = 11.
......*...
....*..*..
..........
*...*.....
**..**....
....**....
..........
..........

Generation = 12, Population = 9.
..........
..........
..........
**..**....
**.*......
....**....
..........
..........

Generation = 13, Population = 9.
..........
..........
..........
***.*.....
****......
....*.....
..........
..........

Generation = 14, Population = 7.
..........
..........
.*........
*.........
*...*.....
.***......
..........
..........

Generation = 15, Population = 9.
..........
..........
..........
**........
*.**......
.***......
..*.......
..........

*** Life<ConwayCell> 6x14 ***

Generation = 0, Population = 31.
.....***.*.***
*.*..*..**....
..*....*..***.
....***....*..
*..**....*..**
......*.*.**..

Generation = 1, Population = 33.
.....***.**.*.
.*...*...*...*
.*.**..******.
....***......*
...**.**.*..*.
.........****.

Generation = 2, Population = 32.
.....**.***...
..*..*.......*
..**...*******
..*..........*
...**.****..**
........*****.

Generation = 3, Population = 26.
.....**..*....
..****.......*
.***....****.*
..*.*.*.......
...*...*.....*
..........****

Generation = 4, Population = 25.
...*.**.......
.*...**.*...*.
.*.......**.*.
.*..*..****.*.
...*.......*.*
...........***

Generation = 5, Population = 28.
....****......
..*.****.*.*..
***..**...*.**
..*.....*...**
........**...*
...........*.*

Generation = 6, Population = 23.
...**..**.....
..*.....*.***.
..*.*...***..*
..*....**..*..
........**...*
............*.

Generation = 7, Population = 19.
...*...***.*..
..*.*.....***.
.**...........
...*...*....*.
.......***..*.
..............

Generation = 8, Population = 20.
...*....**.**.
.**.....*****.
.**.........*.
..*....*......
.......**.....
........*.....

Generation = 9, Population = 20.
..*.....*...*.
.*.*....*....*
...*....***.*.
.**....**.....
.......**.....
.......**.....

Generation = 10, Population = 14.
..*...........
...*...**..***
.*.*..........
..*...........
......*..*....
.......**.....

Generation = 11, Population = 10.
............*.
...*........*.
...*........*.
..*...........
.......**.....
.......**.....

Generation = 12, Population = 9.
..............
...........***
..**..........
..............
.......**.....
.......**.....

Generation = 13, Population = 7.
............*.
............*.
............*.
..............
.......**.....
.......**.....

Generation = 14, Population = 7.
..............
...........***
..............
..............
.......**.....
.......**.....

Generation = 15, Population = 7.
............*.
............*.
............*.
..............
.......**.....
.......**.....

Generation = 16, Population = 7.
..............
...........***
..............
..............
.......**.....
.......**.....

Generation = 17, Population = 7.
............*.
............*.
............*.
..............
.......**.....
.......**.....

Generation = 18, Population = 7.
..............
...........***
..............
..............
.......**.....
.......**.....

Generation = 19, Population = 7.
............*.
............*.
............*.
..............
.......**.....
.......**.....

Generation = 20, Population = 7.
..............
...........***
..............
..............
.......**.....
.......**.....

*** Life<ConwayCell> 3x14 ***

Generation = 0, Population = 32.
****.**..***.*
.*****..******
.*******.**.**

Generation = 2, Population = 1.
..............
.....*........
..............

Generation = 4, Population = 0.
..............
..............
..............

Generation = 6, Population = 0.
..............
..............
..............

*** Life<ConwayCell> 6x17 ***

Generation = 0, Population = 51.
********.***...*.
***.*...***.*..**
...*..*.*..*..***
*...****.*.*.....
*....*..*..**.*..
**..******.*.....

Generation = 2, Population = 33.
.....**..........
*..**..*....**..*
.*.*......**..**.
.*.*..........**.
**..*.**.........
**...******.*....

Generation = 4, Population = 30.
......*.....***..
.**...*....*.***.
**.........*....*
**.**..........*.
******..**.......
........**.......

Generation = 6, Population = 22.
.*...............
.**........**..**
.**..............
....*............
.***.*..**.......
.****...**.......

Generation = 8, Population = 15.
.*...............
*..*.............
.***.............
.*.**............
....**..**.......
........**.......

Generation = 10, Population = 16.
.................
**...............
***..............
***..*...........
....**..**.......
....*...**.......

Generation = 12, Population = 13.
.................
.................
..*.*............
.**..*...........
.*....*.**.......
...*.*..**.......

Generation = 14, Population = 15.
.................
..*..............
.*.**............
*....*.**........
.*.***...*.......
.....*...*.......

Generation = 16, Population = 12.
.................
.*..*............
*...**...........
**.*.**..........
....**...........
.................

Generation = 18, Population = 16.
.................
...***...........
*.**..*..........
**.*..**.........
....***..........
.....*...........

Generation = 20, Population = 20.
....**...........
...****..........
*....***.........
**.....**........
...**..*.........
....***..........

*** Life<ConwayCell> 7x16 ***

Generation = 0, Population = 44.
*.***.....**..*.
.**...***.**....
..*....*..**..*.
......**.*....**
..*.*.*..**.*.**
......*..*....*.
.*..**..****.*.*

Generation = 1, Population = 33.
..**...*.***....
......***...*...
.**........*..**
...*.***.*......
......*..**.....
...**.**....*...
.....*..***...*.

Generation = 2, Population = 33.
......**.***....
.*.*..****..*...
..*..*..........
..*..*****......
...*.....**.....
....*.**...*....
....******......

Generation = 3, Population = 30.
......*..***....
..*..*...*.*....
.*****..........
..*********.....
...**....**.....
...**...........
....*...*.......

Generation = 4, Population = 22.
.........*.*....
.**..**..*.*....
.*.....*........
.*....***.*.....
......**..*.....
.....*...*......
...**...........

Generation = 5, Population = 17.
................
.**...*.*.......
**...*...**.....
........**......
.....*....*.....
....***.........
....*...........

Generation = 6, Population = 17.
................
***......*......
***....*..*.....
........*.......
....***..*......
....*.*.........
....*...........

Generation = 7, Population = 20.
.*..............
*.*.............
*.*.....**......
.*...*****......
....*.**........
...**.*.........
.....*..........

Generation = 8, Population = 18.
.*..............
*.*.............
*.*...*..*......
.*...*...*......
...**...........
...**.**........
....**..........

Generation = 9, Population = 18.
.*..............
*.*.............
*.*.............
.*****..........
..**..*.........
......*.........
...****.........

Generation = 10, Population = 15.
.*..............
*.*.............
*...*...........
....**..........
.*....*.........
..*...**........
....***.........

Generation = 11, Population = 14.
.*..............
*...............
.*.***..........
....**..........
......**........
.......*........
.....***........

Generation = 12, Population = 14.
................
***.*...........
...*.*..........
...*............
.....***........
.....*..*.......
......**........

Generation = 13, Population = 16.
.*..............
.****...........
.*.*............
.....*..........
....****........
.....*..*.......
......**........

Generation = 14, Population = 15.
.*.*............
**.**...........
.*.*............
.....*..........
....*..*........
....*...*.......
......**........

Generation = 15, Population = 18.
**.**...........
**.**...........
**.*............
....*...........
....**..........
.....**.*.......
.......*........

*** Life<ConwayCell> 9x10 ***

Generation = 0, Population = 52.
..*..**.*.
****.*....
*.*..*...*
***....***
**..*.***.
*.**.*..**
**...*.***
***.****.*
.*..******

Generation = 2, Population = 16.
..**.**...
..*.......
..*...*...
...*......
......*...
...*.**...
....*.....
....*.....
.*..*.....

Generation = 4, Population = 18.
.***......
.*..*.....
.***......
...***....
....*.*...
......*...
......*...
...*.*....
....*.....

Generation = 6, Population = 21.
.***......
*..**.....
....**....
.....**...
....*.**..
....*..*..
....*..*..
....*.*...
....**....

Generation = 8, Population = 22.
.****.....
.*...*....
......*...
......**..
...**.**..
........*.
..*...*.*.
......**..
...***....

Generation = 10, Population = 19.
.*...*....
.*........
.....**...
..........
....***...
....*...**
...*....*.
...**.....
...**.**..

Generation = 12, Population = 21.
..........
..........
.....*....
....**....
.....*..*.
...*.*.*.*
..**..*..*
..*..**.*.
...****...

Generation = 14, Population = 16.
..........
..........
....*.*...
......*...
...*...**.
..**..*..*
.*..*...*.
..*.*.....
...*......

*** Life<ConwayCell> 10x15 ***

Generation = 0, Population = 54.
.............*.
..**......**...
*.*.*.**..**.*.
...**.*.*..*..*
.******.***.**.
.......*.*.....
*...*..**.....*
*.****.*...*...
**.*.......*..*
*..**.*.*......

Generation = 2, Population = 51.
..*............
.*.*......*....
.*.....****....
.***.**.******.
.**......******
.***.**...*..*.
*..***.**......
*...*...*......
*...*...*......
****...........

Generation = 4, Population = 37.
...............
**.*...*.......
**.*****.......
*.*****.*....*.
**...*..**....*
**...........**
*.........*....
*......*.*.....
...............
*.**...........

Generation = 6, Population = 14.
...............
...............
.......***.....
......*........
......**..*..**
......**.*...**
...............
...............
...............
...............

Generation = 8, Population = 18.
...............
.......**......
.......***.....
......*..*.....
.....*..**...**
......***....**
.......*.......
...............
...............
...............

*** Life<ConwayCell> 8x3 ***

Generation = 0, Population = 21.
***
***
**.
.**
***
***
.**
***

Generation = 1, Population = 4.
*.*
...
...
...
...
...
...
*.*

Generation = 2, Population = 0.
...
...
...
...
...
...
...
...

Generation = 3, Population = 0.
...
...
...
...
...
...
...
...

Generation = 4, Population = 0.
...
...
...
...
...
...
...
...

Generation = 5, Population = 0.
...
...
...
...
...
...
...
...

Generation = 6, Population = 0.
...
...
...
...
...
...
...
...

Generation = 7, Population = 0.
...
...
...
...
...
...
...
...

Generation = 8, Population = 0.
...
...
...
...
...
...
...
...

Generation = 9, Population = 0.
...
...
...
...
...
...
...
...

Generation = 10, Population = 0.
...
...
...
...
...
...
...
...

*** Life<ConwayCell> 5x10 ***

Generation = 0, Population = 23.
...***.*.*
.***.*.*.*
..**..*.*.
..*.*....*
..*...****

Generation = 2, Population = 17.
....*.*...
.....*.*.*
.**.*....*
..*.**....
..*...****

Generation = 4, Population = 13.
......**..
..**......
.**.....**
.**......*
...*....*.

Generation = 6, Population = 13.
..*.......
..*....***
.*.*...*.*
..*.....**
..*.......

*** Life<ConwayCell> 2x8 ***

Generation = 0, Population = 1.
........
.......*

Generation = 1, Population = 0.
........
........

Generation = 2, Population = 0.
........
........

Generation = 3, Population = 0.
........
........

Generation = 4, Population = 0.
........
........

Generation = 5, Population = 0.
........
........

Generation = 6, Population = 0.
........
........

Generation = 7, Population = 0.
........
........

Generation = 8, Population = 0.
........
........

Generation = 9, Population = 0.
........
........

Generation = 10, Population = 0.
........
........

Generation = 11, Population = 0.
........
........

Generation = 12, Population = 0.
........
........

*** Life<ConwayCell> 2x9 ***

Generation = 0, Population = 16.
*******.*
***.*****

Generation = 1, Population = 4.
*.......*
*.......*

Generation = 2, Population = 0.
.........
.........

Generation = 3, Population = 0.
.........
.........

Generation = 4, Population = 0.
.........
.........

Generation = 5, Population = 0.
.........
.........

Generation = 6, Population = 0.
.........
.........

Generation = 7, Population = 0.
.........
.........

Generation = 8, Population = 0.
.........
.........

Generation = 9, Population = 0.
.........
.........

Generation = 10, Population = 0.
.........
.........

Generation = 11, Population = 0.
.........
.........

Generation = 12, Population = 0.
.........
.........

Generation = 13, Population = 0.
.........
.........

Generation = 14, Population = 0.
.........
.........

Generation = 15, Population = 0.
.........
.........

Generation = 16, Population = 0.
.........
.........

*** Life<ConwayCell> 4x17 ***

Generation = 0, Population = 40.
*.****...**..**.*
..**..**.**.*.***
****.*..*...*..**
****.*.****.*..*.

Generation = 1, Population = 29.
.**.***.****.**.*
*.....**..*.*....
*....*......*....
*..*..****.*...**

Generation = 2, Population = 24.
.*...**.******...
*...*..**.*.*....
**...*...**.*....
......***........

Generation = 3, Population = 17.
.....**.*.*.**...
*...*..*.........
**...*....*......
......****.......

Generation = 4, Population = 17.
.....***.........
**..*..*.*.*.....
**...*...*.......
......****.......

Generation = 5, Population = 17.
.....****........
**..*..*..*......
**...*...*.......
......****.......

Generation = 6, Population = 18.
.....****........
**..*..*.*.......
**...*...**......
......****.......

Generation = 7, Population = 19.
.....****........
**..*..*.**......
**...*....*......
......*****......

Generation = 8, Population = 20.
.....*****.......
**..*..*.**......
**...*.....*.....
......*****......

Generation = 9, Population = 20.
.....***.**......
**..*..*.**......
**...*.....*.....
......*****......

Generation = 10, Population = 20.
.....***.**......
**..*..*.*.*.....
**...*.....*.....
......*****......

Generation = 11, Population = 20.
.....***.**......
**..*..*.*.*.....
**...*.....*.....
......*****......

Generation = 12, Population = 20.
.....***.**......
**..*..*.*.*.....
**...*.....*.....
......*****......

Generation = 13, Population = 20.
.....***.**......
**..*..*.*.*.....
**...*.....*.....
......*****......

Generation = 14, Population = 20.
.....***.**......
**..*..*.*.*.....
**...*.....*.....
......*****......

Generation = 15, Population = 20.
.....***.**......
**..*..*.*.*.....
**...*.....*.....
......*****......
