*** Life<Cell> 2x11 ***

Generation = 0, Population = 12.
00-00---0-0
0000---00--

Generation = 2, Population = 10.
----*1----0
0---0-1*011

*** Life<Cell> 4x14 ***

Generation = 0, Population = 29.
-0-000-0000--0
00---00---0---
-00--00-0--00-
-0---00-000-00

Generation = 3, Population = 25.
-*0*-0-.----00
..1-1.-11-*-0-
1.1*-..--0*1-0
*---*01-11----

Generation = 6, Population = 28.
-*1**-.**101-*
*.-11.*..0.0*1
*.-.**.-.-*.0-
.*--.0*1.---1-

*** Life<Cell> 4x4 ***

Generation = 0, Population = 16.
0000
0000
0000
0000

Generation = 4, Population = 8.
-**-
*--*
*--*
-**-

Generation = 8, Population = 8.
-**-
*--*
*--*
-**-

*** Life<Cell> 13x8 ***

Generation = 0, Population = 8.
0-------
------0-
--------
---0----
-0------
0-----0-
--------
-------0
--------
--------
--------
--------
0-------

*** Life<Cell> 1x3 ***

Generation = 0, Population = 3.
000

Generation = 3, Population = 0.
---

*** Life<Cell> 3x8 ***

Generation = 0, Population = 22.
00000000
-0000000
00000-00

Generation = 4, Population = 14.
-*-1***1
*.*0--0-
-*-.0*-*

*** Life<Cell> 2x2 ***

Generation = 0, Population = 4.
00
00

Generation = 2, Population = 0.
--
--

Generation = 4, Population = 0.
--
--

Generation = 6, Population = 0.
--
--

Generation = 8, Population = 0.
--
--

*** Life<Cell> 8x10 ***

Generation = 0, Population = 48.
000--00000
-0--0--0--
--0-00---0
00--000000
--000-00-0
-0000-0--0
00--000-00
-0-0000--0

Generation = 4, Population = 38.
...--.-.0-
-*1-.10.0-
-1*----0**
.*-0....-*
110**0*--0
0-.--*0100
*1-*-1.-.*
-.01.1*1-.

Generation = 8, Population = 23.
...01*-*-.
-.-1..*.0-
-*.-.-1...
.*-*....-*
*.-....--1
11.--.-.-*
.*...-.-.*
-.-*.-***.

*** Life<Cell> 3x14 ***

Generation = 0, Population = 30.
00000000---000
00-000--0-0-00
00---000000-00

Generation = 4, Population = 15.
-.-.*--*1-1---
*.001.--.---.*
*--1-0*-.-*-*-

*** Life<Cell> 7x12 ***

Generation = 0, Population = 42.
000-------00
0-0------0-0
--0000000-0-
000-0---0-00
0--0----00--
-000--000-0-
-000---0000-

Generation = 1, Population = 41.
---0------1-
10--0000---1
--1-1----010
----1-0--0-1
1001--0-1100
--1100111-10
0-1-0---1--0

Generation = 2, Population = 44.
000--000-0--
*1-----1000*
0------00--1
00--*-10----
*-1-0--0-*11
--**1-*-*0-1
--*01-0-*0-1

Generation = 3, Population = 46.
-11001--01-0
.----0-*11-*
-0--1--1---*
11-0.-*1-00-
*0*1-0011*--
00..*-*1.11-
-0*1--1-*--*

Generation = 4, Population = 33.
0*----0----1
.-0001-**--*
-11--------*
-*01.-.*0-1-
.-.-01---.1-
-1..*0.-.-*-
--**-0*0*--.

Generation = 5, Population = 45.
1*-00---0-1*
*1---*0*.10*
0-*010-----*
1*1**0..1-*-
.-.---011.-1
0-*..1.1.1.1
--**1-*-.00.

Generation = 6, Population = 45.
-*-11-0--1-*
.---0.-***1.
--.1*1-1001*
-.*..-..*-*1
*0.1011*-.-*
--*.*-.*.*.*
00***0*-*-1.

Generation = 7, Population = 32.
1.-*-----*1.
.1-0-.-...-.
--.***---1-.
1**..-...0.*
.1.*1--*-*-*
-1...1...*.*
1-*.*-*0*0-.

*** Life<Cell> 15x10 ***

Generation = 0, Population = 12.
----------
-0--------
----------
----0-----
----------
---0------
--------0-
----------
----0-----
0---------
----0----0
---------0
-0------0-
---0------
----------

Generation = 3, Population = 74.
---00-----
--0110----
-00-0-0---
01-*00-00-
--000000-0
0-00-1--0-
00--10-0--
-0--0---00
-010----1-
-0-0---00-
01-0--11-*
---10-010*
000-10--0-
0*00-----1
010--0-0--

Generation = 6, Population = 73.
--------0-
00-*-1-01-
----0-0---
-*0*-001.-
--0---0--0
.-10*1--0-
11--*-00-0
11--1-0--*
-*10-0-01-
0-0--0010-
--10---.**
1-0-10-..*
01--*.1-1-
1*1--1-01-
-*1001-0-*

*** Life<Cell> 3x6 ***

Generation = 0, Population = 11.
-00000
-0--0-
0-00-0

Generation = 1, Population = 12.
0---11
-10010
-0110-

Generation = 2, Population = 6.
--0---
--11--
0-**--

Generation = 3, Population = 9.
-01---
01*-1-
--**0-

Generation = 4, Population = 10.
---01-
1*.1*0
0-*.-0

Generation = 5, Population = 9.
001---
-*.-.-
10**-1

Generation = 6, Population = 10.
11*0--
1..1.0
*1*.--

Generation = 7, Population = 8.
--*-11
-..**-
*-*.-1

*** Life<Cell> 9x6 ***

Generation = 0, Population = 20.
00--0-
00-0--
0-0---
---0-0
0-0-0-
-----0
0-0-0-
0--0--
---0--

Generation = 1, Population = 22.
--0--0
1-0---
10-0-0
--0-0-
---0-0
----0-
1--0--
10-1--
0-010-

Generation = 2, Population = 26.
00100-
*01---
-1--0-
0----0
------
0--0--
*-01--
*10---
101*10

Generation = 3, Population = 25.
-1*-10
.-----
1*-0--
------
---0-0
10-10-
*0--0-
.*1100
-1**-1

Generation = 4, Population = 27.
0*.-*1
*-1000
*.--0-
00---0
00010-
------
.1-1--
..**1-
1-..1*

Generation = 5, Population = 23.
-**-.-
*0*---
*.0-10
1--00-
-1--1-
1-0-0-
.-0*--
.**.--
-1..-*

Generation = 6, Population = 29.
-.*0.-
*1.000
*.10-1
*--11-
0----0
-01110
.-1.--
.*.*-0
1**.1.

Generation = 7, Population = 31.
0**-.1
**.1--
*.*1-*
*0--*0
1-0-11
-1*---
.1*.0-
*..*1-
****-.

Generation = 8, Population = 22.
-.*-.-
...*0-
...-1*
*10-.1
*-1---
--.1-0
*-..10
*...-0
****-.

*** Life<Cell> 13x8 ***

Generation = 0, Population = 36.
-00000--
-0----00
-------0
--00--0-
00-0---0
---0----
---00-0-
--0--0-0
-0-----0
---0----
--0---00
-----00-
000-0-0-

Generation = 1, Population = 50.
0----1-0
01-00-1-
-000--01
0-1-00-0
110-0---
000---00
----10--
------01
0--0-001
-0--0-0-
-0-----1
00---11-
1-1--010

Generation = 2, Population = 56.
1--0--0-
--0-10*0
0-1-0---
1--0-101
**1-1-0-
-1-0--11
0000*10-
0--000--
--0-01--
-10--010
--0-000-
----0--0
*0-00-*1

*** Life<Cell> 15x2 ***

Generation = 0, Population = 30.
00
00
00
00
00
00
00
00
00
00
00
00
00
00
00

Generation = 4, Population = 4.
**
--
..
..
..
..
..
..
..
..
..
..
..
--
**

Generation = 8, Population = 0.
..
..
..
..
..
..
..
..
..
..
..
..
..
..
..

*** Life<Cell> 7x15 ***

Generation = 0, Population = 9.
---------------
--0---0--------
------0---0----
--------0------
---------------
---------------
0-----00------0

Generation = 1, Population = 30.
--0---0--------
-0-0-010--0----
--0--01000-0---
------00-00----
--------0------
0-----00------0
-0---0110----0-

Generation = 2, Population = 20.
------1---0----
0--------------
----0-------0--
--0-------1----
0------0--0---0
--------0------
--0-01**10--0--

Generation = 3, Population = 53.
0----0-0-0-0---
-0--0-1---0-0--
0-00-0----00-0-
00-00--0-0*00-0
-00---0--010-0-
0-0-00001-0-0-0
-0--1-***100-0-

Generation = 4, Population = 22.
------1---0----
0---------1----
1-1----0--1----
----1-----.-1--
0-----10------0
--1----1-------
---0*1...-110--

Generation = 5, Population = 54.
0----0-0-010---
100---10-0-0---
*--00-1-00*00--
--00-00---.0-00
-00-00*-0---00-
00--00-*1-000-0
---1**...1*-10-

Generation = 6, Population = 50.
1-0-0-11----0--
*-1-0---0------
*-1-10-011.-1-0
0-----10-0.1--1
---0--.01010--0
1---110*-0--1--
000*.**.***1-1-

Generation = 7, Population = 49.
*-1-1-**---0-0-
*-----101-----0
*-*--11-*-*---1
10001-*1--.*-0-
--0--0.1-----01
*-10**1.--00--0
---*....****1-0

Generation = 8, Population = 39.
.-----*.--1----
*0--0-*1-010--1
*0*--**-*-.---*
----*-.---..-11
---001.*1-1-0--
.--1.***1------
0--*.*...*..*-1

*** Life<Cell> 3x7 ***

Generation = 0, Population = 20.
0000000
000000-
0000000

Generation = 1, Population = 15.
-111111
1----10
-111111

*** Life<Cell> 7x13 ***

Generation = 0, Population = 41.
-----0-000---
0--0--00-----
-000---0-0-0-
---0---00--0-
---0-0-00--00
000-000--000-
-00--0-0-0000

Generation = 1, Population = 46.
0--00-0--10--
---10-11---0-
-1-10---0--10
-0--0001--0--
00-1010----11
11-01-10--110
---0-10---111

Generation = 2, Population = 47.
-00---1-0*1--
000*1--*-0-1-
0*--1--0-0--1
--00111*-0-0-
-1---*10--0--
---1--*100--1
00010*---0-*-

Generation = 3, Population = 36.
----00-01**--
--1.-0-*0-0--
-.01------01-
001-***.-10--
0----.-1-0--1
1--*-0.*-----
1--*-*-0-1-.-

Generation = 4, Population = 43.
--001---*.*0-
-0*.-1-*-0---
0.1*--000-1*1
---0***.0---0
--010.-*-1-1-
-10.-1.*0---1
*00.-.-1--1.-

Generation = 5, Population = 34.
----*---***10
-1..--1.--0-0
-.-.-0-1-0**-
0-11....1-001
---*-.-.----1
--1.--.*1-1--
*1-.-.0*-1-.1

*** Life<Cell> 14x11 ***

Generation = 0, Population = 43.
--00---00--
---000----0
---0---0---
-0--0--0-0-
---0-0--0--
--00-------
0-0--------
---0----0--
0-0--0---0-
----000----
---0-00---0
---0-0----0
0--00--0---
---0------0

*** Life<Cell> 2x1 ***

Generation = 0, Population = 2.
0
0

Generation = 3, Population = 0.
.
.
