*** Life<Cell> 33x22 ***

Generation = 0, Population = 39.
-----0----------------
-------00--------0-0--
----------------------
-----------0----------
-----0----0-----------
-0--------0-----------
----------------------
----------------------
-------0--------------
----------------------
------0-----0---------
-----------------0---0
----------------------
---0------------------
----------------------
-0---------0----------
------------------0---
--------0-------------
--------------------0-
-----------------0----
-------------0--------
------0-----0---------
----------------------
---0--0------------0--
----------------------
----------------------
---------------0------
--0---0---------------
0---------------------
-------------00-0-----
------------------0---
--0-------------------
--0-----0-------------

Generation = 8, Population = 226.
-.---.0*-.-11---------
-.*..1......**0*10-0--
-1-*-**11-1.-1--------
------0*-.-0*----0-0-0
-.0--1*1.*1*-0----0---
--01.1*..*.*-1--.110--
------.*.-.0----------
-0--11-0--1*1---------
-*-*1.*-11-*---0--0---
---.1--*.0-------0-0--
0----0-..11---0-------
-----0101--0-0-0-0-0--
-----*-.--*--1--------
-0-0--0---0*1---------
--------1-------------
----*01**.---.--------
---00-*00-1--.----0---
1-1*.1-.---.-.--1-----
---11-1--------00-----
--*--.*--.-----*-1-*-0
1--1-10----------*---1
0.1..100---.-0-*1---0-
---11-110------*--1---
01--.1..-1-1-1-.1-----
--*-1-*1----11-0--0---
1--.00010--0..11-.*---
.01---00*---1*1-.-.-1*
--.-0---*.0-1*.1--01--
------1-1-*-100----*0-
1----0--.1*****-0-..--
*1----------1-.-..--1-
*0.-*-----*-1*-1-*0---
-1*1*-----*---1**-0---

*** Life<Cell> 16x7 ***

Generation = 0, Population = 15.
-------
------0
--0---0
--0----
0------
-0-----
-------
-0-----
-------
0-0---0
--0----
--0-0--
-------
----0--
-------
-0-----

*** Life<Cell> 4x21 ***

Generation = 0, Population = 11.
0----0-----0--00-----
----------------0---0
--0------------------
00------------0------

Generation = 5, Population = 41.
0*00-00--1-**1..---10
**--0000-000*--1-01--
-1*0-**0-----0**----0
**-11----0----1------

Generation = 10, Population = 40.
-.*1-*-*-*-***..-*1..
..*-*1-0*0...*-.1.*1-
-..1-*.**-0*0.**-.*1-
..1-**10-*-*--.-1-0--

Generation = 15, Population = 30.
-*..-*-.***.....-.-..
..*-.*-..*.**.-*1**-.
-*.11....-1*1.**-.*-.
..1...1-*...--**.*-0-

Generation = 20, Population = 29.
-*..0*-...*.*.**.....
*..-.*-.......1.1....
*..**...*-.*-...***.*
**....--....1-*****-1

Generation = 25, Population = 15.
***...1..............
*.**..-.......**.....
..**.....-....**.....
......--....--**...-.

*** Life<Cell> 32x43 ***

Generation = 0, Population = 37.
-------------------------------------------
---------------0-----0---------------------
----------------------------------------0--
--------------------------------0----------
--------0----------------------------------
-------------------------------------------
--------0----------------------------------
0----------0-------------------------------
------------------0-------------0----0-----
------------0------------------------------
-----------0------------00-----------------
-----------------------------0-------------
-------------------------------------------
-------------------------------------------
-0---------0-------------------------------
-----------------0-------------------------
----0--------------------------------------
----------------------------------0------0-
---------------0---------0-----------------
-------------------------------------------
------------------0------------------------
---------------------------0---------------
-----------------------------------------0-
----------------------0--------------------
----0--------------------------------------
-------------------------------------------
--------0---------------0----------0------0
----------0----------------0----------0----
-------------------------------------------
-------------------------------------------
---------------------0---------------------
-------------------------------------------

Generation = 8, Population = 222.
--------0---------0-------------0----0-----
-------0----00---------0-----1------.------
--------0--0------------01------0----*0----
------------------------0----1--1-------1--
0----------0.---0-----------------------*--
----0------*1-.*-----0----------.----------
01-0*1----..1.--1------.--.----0**-------.-
---0.-.---1-*-0-.*-0------------1-*--------
----1---....0*-*-----.--*-*-**---1*.----.1-
----0---*-.01--0----01-1-----.-----------1-
---*----.1*.-0*10.-.-.*.*1.-...-*1------1--
--------.-0..--------1-*---*----0----1-----
-----.--*--1------0---------*--------------
----1----------------------0-----*---------
*---..--.1---*-----1---------------------0-
0---1----0-1*---------0--0----.------------
--1-1--.----0-----1-------------1----------
------------1----*---*----1------1--..*---0
-------10--0-----1*---*0-1-.-----0-1-1---.0
----------0----*---*-------.-0--------*----
----------1---*..---***--*0--------------*-
---------------1---0-----.------.--1----0*0
-1--------.1--.---1--1--..-*-----*---0--.1.
--------------1---.1----.0*..-0---------*.-
--0-0-----.-*-----*-----1-0-----------.0***
--------0-.---------------.----.--0-----.00
0-----*-01.0*-.1-----.1--1-1-..-0-0-0-.*.-0
--0---1-.---.-----00-**1------0-*--0----*-0
------*---1-------1---1--------.-------000.
--------1-*---------------------------*-0--
--------1----0--------.-*-..-1-----0-----0*
----------------------1--------------------

*** Life<Cell> 46x49 ***

Generation = 0, Population = 41.
--------------0----------------------------------
-----0-----------------------0-------------------
-------------------------------------------------
-------------------------------------------------
-------------------------------------------------
-------------------0-----------------------------
---------------------------------------0---------
-----------------0-------------------------------
----0-------------------------0------------------
----------------------------------------------0--
-------------0-----------------------------------
-----------------------0-------------------------
--------0----------------------------------------
-------------------------------------0------0----
------------------------0------------------------
-------------------------------------0-----------
------------------------0----0-----------------0-
---------------0----------------0----------------
------0------------------------------------------
----------------0----------------0-----0---------
-------------------------------------------------
------------------------------------0------------
-------------------------------------------------
-------------------------------------------------
--------------0----------------------------------
-------------------------------------0-----------
-------------------------------------------------
--------------------------------------0----------
-----0--0----------------------------------------
-------------------------------------------------
----------0--------------------------------------
--------------------------------------0----------
-------------------------0---------------------0-
-------------------------------------------------
------------------------0------------------------
--------------------------------------0----------
-------------------------------------------------
-------------------------------------------------
-------------------------------------------------
--0----------------------------------------------
-------------------------------------------------
---------------------0---------------------------
-----0-------------------------------------------
-------------------------------------------------
-------------------------------------------------
---------------------------------------0---------

*** Life<Cell> 24x29 ***

Generation = 0, Population = 13.
-----------------------------
-----------------------------
-------------------0---------
-------------------0---------
-----------------------------
---0-------------------------
--------------0--------------
-----------------------------
-----------------------------
-----------------------------
--------------0--------------
-----------------------------
--0-----------------------0--
---0-------------------------
-----------------------------
-----------------------------
----------0-----------0-0----
--0--------------------------
-----------------------------
-----------------------------
-----------------------------
-----------------------------
-----------------------------
----------0------------------

Generation = 8, Population = 64.
--------------*--0-.-0-------
---0-----------*0-0.0-1.-----
-----------1--*-.1---.-----0-
-----------0-----*011.-----0-
--0------------.-0-.-1-.--0--
-----------0------0*0--------
------0----------.--.-1------
-----------------------------
----------0--------.--0-0----
--1--------------------------
------0------------0--0------
-------------------0---------
--.-*-----0-------0-----0----
-----------0-----------------
--*-----------0--------------
---.--.---1------------------
--1-----------0-0-0-------0-0
----..----*------------------
------.---.---0--------------
--------*1.1*----------------
--1-----------------------0--
---1-----0.0-----------------
----------1------------------
------------------0----------

Generation = 16, Population = 211.
-------*-1*-*-.*1**..1..-.*.1
--10--1.--**0-..*--.1...-0-.*
--*0-..1-.*..*...*....*.-1...
---1----11-*..01-.*-..1.1*-*-
-------.-0-0---...1.-.....--*
-*--------0.---*-0.....-1*.-0
0-.--------*1-0.-**..-.-0-1-1
--1-------1-1-0*--.***-1-*1--
-1-1--.-------0..*1*1-0001---
--10----------1.-0-*.*-1-----
1----0-------.*001*-*.*01---0
------*-10.0*--.---1--1*-----
.0...-1-1-*-1---11*-.--------
*--*-.0-11-1--.---0*11-------
00*---*-10*1.1---1.11.-------
-1...-.-0-.-.*1.--1----------
1---0.1-**-1----*-0-1-0-0-0--
---.*.--1-.1-01-01.----------
00-0-**-*-.1-0.11-.0---------
1---.111*....*-..1-10--------
---0-.1-..*1.-.-.---------0--
-0--1-0**.*-*111-..---.------
------01.0*-*-*-*------------
-----1-..1*-1--*----------1--

*** Life<Cell> 5x24 ***

Generation = 0, Population = 39.
0-00-0---0--0-----0--0--
00----0-0--00-0--00-----
--0-00-000---------0---0
---0--0---------00----0-
--0--0---000--00-----00-

Generation = 2, Population = 61.
*1*--0-00-10*-1-0-*-10--
0-1-1---*1--00011*-00-0-
--0-**---*--1-10-00---00
0---010----10--0-*-10---
0--0---0-*0---**01--1*0-

Generation = 4, Population = 64.
*1**-00--1.-*-*1*-*--*--
--1-*100*--1*0-...0--1*-
01-0*.0-1.1--11---*1-10*
--100**0-00*01--*.1.0---
-1-001---.-111.*-11-1.--

Generation = 6, Population = 57.
.-**1---0-.-*-*1.-.1**0-
--.-*.00.1-..0-.**011..0
-.1-..--...1*..-1-*.11-*
*1*00..-1--.*.0-..1.----
*11--101-*11*1.*-*10.*10

Generation = 8, Population = 57.
.-**1---0-*1*1***1*1***-
1-*0..-**-1..00...***..-
*.*-..-**...*..*.**.1*-.
..*0-..1---...0-..1*-0--
**1--*0*-*-1.*..-***..--

Generation = 10, Population = 43.
.*.**1-1--.-.....1....*-
.-*-*.**.-**.0-*....*..-
...1..1..**.....**..-.**
..*--*.11*1...0-..*.-*-0
..1-*.0.0.--....-****.1-

Generation = 12, Population = 52.
..****-.-1**.....1.....1
.1*-....*-**.-0*.*..*..*
.**-.**..*....*..*..*...
.**1-*.***1...--....1.1*
...0..0***-1...*-*****11

Generation = 14, Population = 49.
..**.*1*-.*.*...***.....
.1*0..*..-.*.-0...**..**
...1*.**..****.....*..**
...11.....**..-1.*..-.1*
...***-...*1...*0***...-

*** Life<Cell> 34x40 ***

Generation = 0, Population = 3.
----------------------------------------
----------------------------------------
----------------------------------------
----------------------------------------
----------------------------------------
----------------------0-----------------
----------------------------------------
----------------------------------------
----------------------------------------
----------------------------------------
----------------------------------------
----------------------------------------
----------------------------------------
------------------------------------0---
----------------------------------------
----------------------------------------
----------------------------------------
----------------------------------------
----------------------------------------
----------------------------------------
----------------------------------------
----------------------------------------
----------------------------------------
----------------------------------------
----------------------------------------
----------------------------------------
----------------------------------------
----------------------------------------
----------------------------------------
----------------------------------------
------0---------------------------------
----------------------------------------
----------------------------------------
----------------------------------------

Generation = 5, Population = 40.
----------------------0-----------------
---------------------0-0----------------
----------------------0-----------------
----------------------------------------
------------------0-------0-------------
-----------------0-0-----0-0------------
------------------0-------0-------------
----------------------------------------
----------------------0-------------0---
---------------------0-0-----------0-0--
----------------------0-------------0---
----------------------------------------
--------------------------------0-------
-------------------------------0-0------
--------------------------------0-------
----------------------------------------
------------------------------------0---
-----------------------------------0-0--
------------------------------------0---
----------------------------------------
----------------------------------------
----------------------------------------
----------------------------------------
----------------------------------------
----------------------------------------
------0---------------------------------
-----0-0--------------------------------
------0---------------------------------
----------------------------------------
--0-------0-----------------------------
-0-0-----0-0----------------------------
--0-------0-----------------------------
----------------------------------------
----------------------------------------

Generation = 10, Population = 47.
----------------------------------------
--------------------0---0---------------
----------------------------------------
--------------0-------0-------0-----0---
----------------------------------------
------------0---0-----------0---0-0---0-
----------------------------------------
--------------0---------------0-----0---
----------------------------------------
----------------------------------------
----------------------------------------
----------------------0-----0-------0---
----------------------------------------
--------------------0---0-0---0---0---0-
----------------------------------------
----------------------0-----0-------0---
----------------------------------------
----------------------------------------
----------------------------------------
------------------------------------0---
------0---------------------------------
----------------------------------0---0-
----0---0-------------------------------
------------------------------------0---
------0---------------------------------
----------------------------------------
----------------------------------------
----------------------------------------
0-----0-------0-------------------------
----------------------------------------
0-0-0---0---0---0-----------------------
----------------------------------------
0-----0-------0-------------------------
----------------------------------------

*** Life<Cell> 36x27 ***

Generation = 0, Population = 7.
---------------------------
-0-------------------------
---------------------------
---------------------------
---------------------------
---------------0-----------
---------------------------
---------------------------
---------------------------
-0-------------------------
-----0---------------------
------0--0-----------------
---------------------------
---------------------------
---------------------------
---------------------------
---------------------------
---------------------------
---------------------------
---------------------------
---------------------------
---------------------------
---------------------------
---------------------------
---------------------------
---------------------------
---------------------------
---------------------------
---------------------------
---------------------------
----------------------0----
---------------------------
---------------------------
---------------------------
---------------------------
---------------------------

Generation = 4, Population = 24.
---------------------------
-----0---------0-----------
---------------------------
---------------------------
---------------------------
-----------0-------0-------
-----0---------------------
------0--0-----------------
---------------------------
-0---0---------0-----------
-1-------1-----------------
--1--0--.-1--0-------------
---------------------------
-0-------------------------
-----0---------------------
------0--0-----------------
---------------------------
---------------------------
---------------------------
---------------------------
---------------------------
---------------------------
---------------------------
---------------------------
---------------------------
---------------------------
----------------------0----
---------------------------
---------------------------
---------------------------
------------------0-------0
---------------------------
---------------------------
---------------------------
----------------------0----
---------------------------

Generation = 8, Population = 35.
---------------------------
-0---0---0-----0-----------
-----1---------------------
------1--0-----------------
---------------------------
-0-----0---------------0---
---------------------------
--------*------------------
-.-------*-----------------
-1---0--01-----------------
-.-*---------0-------------
00----0..-*-.-0--0---------
---------------------------
--*-----1------0-----------
---------------------------
--------.------------------
---------------------------
-0-------------------------
-----0---------------------
------0--0-----------------
---------------------------
---------------------------
----------------------0----
---------------------------
---------------------------
---------------------------
---------------------------
---------------------------
---------------------------
---------------------------
--------------0---------0--
---------------------------
---------------------------
---------------------------
----------------------0----
---------------------------

*** Life<Cell> 27x4 ***

Generation = 0, Population = 22.
----
---0
----
-0--
----
---0
----
----
----
----
--0-
-0--
0---
0-00
----
-0--
0-0-
0---
-0--
---0
----
-0-0
--0-
00--
----
0-0-
----

Generation = 1, Population = 43.
---0
--0-
-0-0
0-0-
-0-0
--0-
---0
----
----
--0-
---0
----
1-00
1-11
0000
----
10-0
1-0-
--00
-00-
-0--
0-0-
00--
11--
-00-
---0
0-0-

Generation = 2, Population = 34.
----
---0
----
---0
----
---0
----
---0
--0-
-0--
----
0-0-
*---
-0**
--1-
--0-
-10-
*010
0-11
0---
-10-
1--0
1---
-*--
--1-
000-
----

Generation = 3, Population = 38.
---0
--0-
----
--0-
----
--0-
----
----
----
0---
000-
1--0
*--0
-1**
----
---0
--1-
*1--
-0--
1--0
0*1-
*---
*--0
-*--
00*0
1--0
000-

*** Life<Cell> 18x19 ***

Generation = 0, Population = 27.
--------0-------0--
-------------------
-0-----------------
-------------------
-------------------
-------------0-----
------0------------
--0-----------0----
-0-----------------
0---------0--0-----
0-0----------------
------0-----0--0---
-------------------
------0-------0----
----0---0---0------
------------0--0---
---------------0---
--00------------0--

Generation = 10, Population = 152.
0*-1-**0-11-0-----0
0-*-01*------0-----
--1-01**00-011.0---
0----0--------*1--0
*.-00--0-00-1-0-.-*
---0--.*01-.*-*100*
*-.*.00--0--*--1---
.1-0.-0110*0.-1-.*1
**..-.-1--1-.---*01
*0.-..-...0111.---*
**.*.--*.-.-*--.1--
.*.---0..-*0**1*.1-
.1-*10---1--*1*..-1
.--**0*-.0-..-*-.1-
--.1*0.1--11*1.**-1
10**.*.*-****....--
0*-.--.0--*.*1-..-0
.******0-11-*-.-..-

Generation = 20, Population = 120.
-**...*****1*..-*1-
...*-.*1-11.1****.-
*-*-*..........**-*
*.-.*.-*.----.**.-*
*.***-...*.......-.
*0*.*....***.**.-..
..****-..**-*1**---
***1...........-...
..***.*.*...*.*-...
..**.**..*-*....*..
.....*...1****..*..
...*...*.*...***.**
...*.0--1**-*.....*
......*....*.-....1
....****...*.......
....*..******....*-
-......1......-...*
......*-**.*.-.-.*.

*** Life<Cell> 6x5 ***

Generation = 0, Population = 20.
00000
0-000
----0
---00
000-0
-0000

Generation = 5, Population = 16.
--*1*
--1.*
0-1*-
*11-.
1--1-
1--*1

Generation = 10, Population = 12.
-***.
*.*..
*..*.
*1-..
---.-
**1..

Generation = 15, Population = 10.
-**..
*..*.
*....
*....
1--.-
.*.**

*** Life<Cell> 39x37 ***

Generation = 0, Population = 43.
--------------------0----------------
-------------0-----------------------
-------------------------------------
-------------------------------------
----0--------------------------------
-------------------------------------
-------------------------------------
--------------0-------0--------------
------------0-----------------------0
---0---0-----------0-----------------
------------0------------------------
----------------0--------------------
-----------------------0-------------
-------------------------------------
-------------------------------------
-------------------------0-----------
-------------------00----------------
-------------------0-----------------
--------0----------------------------
---------------0---------------------
-------------------------------0-----
------------------------------0------
----------------0--------------------
-------------------0-----------------
----------0-------------0------------
0------------------0--0--------------
-----0----0--------------------------
-----------0---------------------0---
-------------------------------------
0----------0----------------------0--
------------------------0------------
-------------------------------------
---------------0-0-------------------
-------------------------------------
---------------------0---------------
-------------------------------------
---0---------------------0--0--------
-------------------------------------
---------------------------0---------

Generation = 1, Population = 145.
-------------0-----0-0---------------
------------0-0-----0----------------
-------------0-----------------------
----0--------------------------------
---0-0-------------------------------
----0--------------------------------
--------------0-------0--------------
------------00-0-----0-0------------0
---0---0---0-00----0--0------------0-
--0-0-0-0---------0-0---------------0
---0---0---0-0--0--0-----------------
------------0--0-0-----0-------------
----------------0-----0-0------------
-----------------------0-------------
-------------------------0-----------
-------------------00---0-0----------
------------------0-10---0-----------
--------0---------01-----------------
-------0-0-----0---0-----------------
--------0-----0-0--------------0-----
---------------0----------------0----
----------------0------------0-------
---------------0-0-0----------0------
----------0-----0-0-0---0------------
0--------0-0----------00-0-----------
-0---0------------0-00-00------------
0---0-0--0---------0--0----------0---
-----0------0-------------------0-0--
0--------------------------------00--
-0--------0-0-----------0--------0-0-
0----------0-----------0-0--------0--
---------------0-0------0------------
--------------0---0------------------
---------------0-0---0---------------
--------------------0-0--------------
---0-----------------0---0--0--------
--0-0-------------------0-00-0-------
---0---------------------0-00--------
--------------------------0-0--------

Generation = 2, Population = 163.
------------------0-0-0--------------
-----------0---0---------------------
----0---------------0----------------
-------------0-----------------------
--0---0------------------------------
--------------0-------0--------------
----0-------0-----------------------0
---0---0----1---0--00---0------------
----------0-0-1-------------------0-0
-0-------0----0-00---00--------------
----------0-0-0--------0------------0
---0---0------0---00-----------------
------------0--------0---0-----------
----------------0--------0-----------
-------------------00--0-------------
-------------------1---0---0---------
--------0--------01--10--------------
---------------0-0---0---0-----------
------0---0--------10----------0-----
-------------0---0-0----------0------
--------0-------0------------0---0---
---------------0---0--------0---0----
----------0---0---0-----0------0-----
0----------------0-0-00-------0------
-----0--0-0-0---0-----1---0----------
0-0--------0-----0-011--1--------0---
---0---00-0-0-----------0------------
---------0-0-0-----0--0--------0--10-
-----0----0-------------0------------
0-0------0-0-0------------------01--0
---------------0-0----0---0----------
0----------0----------------------0--
-------------0-0-0-0-0--0------------
-------------------------------------
---0-----------0-0-0---0-0--0--------
-------------------------------------
-0---0---------------0-0--1---0------
-------------------------------------
---0-----------------------010-------

Generation = 3, Population = 401.
-----------0---0-0-----0-------------
----0-----0-0-0-0-0---0--------------
---0-0-----0-0-0---0-0---------------
--0-0-0-----0-0-----0----------------
-0-0-0-0-----00-------0--------------
--0-0-0-----00-0-----0-0------------0
-----0-0---0100-0--00-0-0----------0-
--0---0-0-00-000-00110-0-0--------0--
-0-0---0----1-*0-0-0000-0--------0---
0-0-----0-0--0--110-011-----------0--
-0-0---0-------00000-0--0----------0-
--0-0-0-0-0--010-01100-0-0----------0
---0---0---0-00-0-000-0-010----------
------------0--0-0-000-0010----------
----------------0-0-100100-0---------
--------0--------0-*-0-10-0-0--------
-------0-0-----00-*-1-1--0-0---------
------0-0-0---0--1-1-1--0-0----0-----
-----0-0-0-0-0-0--0-1----0------0----
------0-0-0-0-0----1-------------0---
-------0-0---0--------------------0--
--------0-0---------0---0--0---------
0--------0-0-0-----0-000-0--0--------
-0---0--0---0-0---0--1-00-0--0-------
--0-0-00---0-0-0-0--00*000-0--0--0---
-----0-0--0-0------1-*-0*00-----0-0--
0---0-0110-------0--000010-----0-000-
---0-0-0----0-0---0-00-0------0-00*10
0-0-0-0--0-0-------0--00-0-----000000
---0-0--0-0---00-0----0-0-0----01*00-
--0------0---00---0--0-0-0-0----000-0
-0--------0-00-----0-00-0-0------0-0-
0----------00---------00-0--------0--
---0---------0-------0-000--0--------
--0-0---------0-----0-0---00-0-------
-0-0-0---------0-0-0-0---00-0-0------
0-0-0-0-------------0---00-0-0-0-----
-0-0-0---------------0-0--00000------
--0-0---------------------01-10------

Generation = 4, Population = 155.
----0-----------0-------0------------
---------0---0---0-------------------
--------------------0----------------
--------------1-------0--------------
0-------0---0-------0---------------0
---0---0-----1-----0-----------------
------------*------------------------
----------1-----0---------0----------
----0---0-----.-0------0--------0-0--
---0---0---0---0-------0-------------
--------0-------1--------------------
------------0-*-----1-0--1-----------
------------0-------1------0--------0
---0---0-----------------------------
--------0---0------------------------
---------------00--.-1-------0-------
---------------11-.-----0------0-----
---------------0-------0------0------
----0-------0---0--------------------
-----------0-------------0-----------
----------0--------00---0--0-------0-
0---------------------0---0-------0--
-----0--0-0-0-------0----------------
-----------0-----------1---------0---
------1-------0-----1-.-----0--0-----
0-0-0------0---0--0--.-1.-1---0---1--
-0----1--1----0-0-------*------------
-------1-------0---0---------0----.--
----------0----0-0------0------------
0-0-0--0-------1---0--1-------0--.--0
-----0----0---------01------0--------
-----------0---------------------1---
---0-------1-0-----0-0---1--0--------
0----------0----------------------0--
-----------------0------00-1---------
-------------------------------------
-------0-------0-0---0--1--1-1--0----
-------------------------------------
---0-----------------0-0-0--1--0-----

Generation = 5, Population = 399.
---0-0---0---0-0-------0-0-----------
----0---0-0-0-0---0-0---0------------
---------0---00--0-0-00--------------
0-------0---00-0-----0-0------------0
-0-0-----0-0--0------00------------0-
0-0-0-0-----0-0---0-----------------0
---0---0--00.---0--0------0----------
----0---00-01--010-----0-0-0----0-0--
-----0---000--.-10----010-0----0---0-
--0---0-0-0-0-0-1-----110-------0-0--
---0-----0-00-0--0--0-00-0-----------
--------0--01-.00--1*--00-00--------0
---0---0---0100----0*00--10-0------0-
--0-0-0-------------0------0--------0
---0-----0-0-0-00----0-------0-------
--------0---0-0--0-.0-0-0---0-00-----
--------------0*-0.--1---0---0--0----
----0-------0-010-----0------0-------
---0-0-------0---0-----0-0----0------
----0-----------0--10-----00-------0-
0--------0--------011000----0-------0
-0---0--0---0------0-0-000-------0---
0---0-00---0-0-----0-000--0------00--
-----00-0-----0-------0-0---0--00-0--
0-0-00-0-----0----00-0.---00-0--000--
-0---0---00-0-0--0-11.0-.0-000---0-0-
----00--1-00-0---000----.00--00---0--
-0------000----1-00-0-------0-0---.--
0-0-0----0-0--0---0---00-0---00-----0
------0-0-----0*000----00---00-0-.-0-
0-0---00-0-----0----1*-----0-00--0--0
---0-0-----100-----00----0------0-0--
0-0-0-----0---0---0---0-0-00-0---00--
-0-0------0100---0-0-0--0--00----0-0-
0----------0----0-0----011--0-----0--
-------0-------0-----0---0---0--0----
------0-0-----0---0-0-00-01---00-0---
---0---0-------0-0-----000-000-00----
--0-0---------------0-----01-10-0----

Generation = 6, Population = 440.
--0-0-0-------0-0-0-0-0-0-0----------
-------0------1----0--0--------------
0---0---0---0---0-0-0-1-0-----------0
---0---0-0--1---00-00---0------------
0-0---0-----0-1---0-0-1-----------0-0
-0-------000--1000---00---0----------
0---0-----1-.-0-1---0--0--------0-0-0
--------1--1*001--01---10---0--------
--0-----0-1-1-.-*-0--0---0----0-0-0-0
-0--------1-1-1-*1--01*---0----------
----0-0-0-0-1-1-1-0-1--1---0----0-0-0
----------01*-.11-1-.-0-1--1---------
----------0-*-1-0-0-.-1--*---0----0-0
-0-------0--0-000---100--1---0-------
------0-----0-011---1---0--0---0----0
---0---0-----010-10.-------0--11-----
----0---0----01.11.---1---0--1---0---
-----------0-0-*11----------01--0----
--0---0--------00-011------0---0---0-
0--------0---0-0------0---11--0---0--
----00----0-0---001-*1---00--0---0---
0-0-----------------0--1-1--0---01--0
---0---10-0-0-----01--1-0--00--0---0-
--0-0----0-0-0-0--0--111-0----01---0-
-0--111--00---0---1-1-*-0-1--10--1---
----0-00-1-0---001-***-1.1---1---1--0
---01-11*-110--0011-0-0-.-1-0--0-----
-----0-1-1-0-0----10-000--00---0--.-0
-0---00-010-001000-0001-0-0-0--------
----0010-0-0-0-.---000--1---11--1.0-0
-------10-0000-1-00--*00000-0-1------
--0-0--0-0-*-1-0---1--0-------00--100
-0-------011-0-0---00---111-0-0------
0-0------0-*-1------------------01--0
---0---0---1-0---0----01*-0-1---0----
0----------0----------------------0--
---0-0---0---0-0-----01-11*-011---0--
-------------------------------------
-0-0-0-0-------0-0-0-0-00-1-1-1010---

Generation = 7, Population = 596.
-0-----------01----0--1----0---------
0-0---------00*0--0-00-0--0---------0
-0---0-0---0100010--1-*-10---------0-
--------0-00-010-1-110-010--------0--
-0---0----0-1-*--0-010*00-0------0---
0---0-0-0111-1*-11--01---0-0----0----
---0-0--0-*0.---*-0----1--0-0--0-----
0-0-0--0*01**-1*10-*-00-1--0-00------
---0---01-*0--.-*01--1-1----00-------
0---0-0--0----*-**00-**-------0------
-0-0-------0--*0-01-*-0----10--0-----
----0-0-001-*0***--1.010--0*00--0----
-0--------10*-*---10.--0-*00010--0---
0-0---0-0--0--111000---0-*000100--0--
-0-0-0---0-0101---00*-01--0100-10--0-
--0---------------1.0-0-0--10-*-00--0
-----0---0-001-.-*.--1-0-0---*-0--0--
--0-0-0-0-0--10.---10-0---0-1-0----0-
00-0-0-0-0-0--01-01-*00----1-0------0
-00-000-0------100-1---0----0--------
--00110---------1-*-**-00--------1--0
----00-00-------00--1---0*--1---1-0--
0-0---0*10-0---0-0-*--*--001-0-1-001-
---01-00-1--0-0-00---*-*---00---00010
0--0*---0110---00-*0*-.----00---0*000
-0---01-0*-1----1--...--*-1--*-00*10-
--01-0--.-*-1-0-1*--1-10*-*0--0100---
-0-0-1-*-*-1-1---0-----1-0110-010-.1-
0-0--1--1-1-1----1011--01-101--00-0--
-0-011*--1-1---.0---111----0**-0-.---
--0--0-*1-1--1-*-110-.1-1-1-10*-0--0-
-----00101-.0---00-*--1------01101*-1
--0-0--001-*---10-0-1000*-*---1-0000-
-0-----0010*--00-0-00-00-0----00-*00-
----0-0-000--10-0-0--01-.----0-01-0-0
-0---0-0-0010--0-0---0-0-0---00-0010-
0-0---0-0-000---0---01*-*-.-1-*0-010-
-0-----0-0---0---0-0--00-0---0-0000--
0-------0-----0--------11-----*--10--

Generation = 8, Population = 226.
----------------------------0-------0
---0-0-0------.----0-1---------------
----0-------*---------.--------------
----------------0--------------------
--0-----------.-------.1-------------
------------0**----------------------
----------.1.0--.---0----------------
------0-.--.*-*.---*--1--0----1------
----0-----.---*-.--00-------1-0------
---0---------0*0..-10..----0---------
----0---0-----.-----.----------------
--------1---.-..*-1*.1*-1--.---------
----0------1.0.0---1.0---.-----------
------------0-*----1-----.----1------
----------------1-11*----------------
--------------1---*.111-------.--1---
----------01---.1.*01---0--00.------0
0--0---0---0---*---*--1----0---------
1----1----0-0---0-*-.----------------
-------0---0----1---0--1---------0---
------------------*1**-------------0-
0----------0--------*-0--.--------1-0
-------.*----------.--*--------------
-----------0---------*1.00-1---------
--0-.----------110*-*-.00-------1.---
------*--.-*--0---0.**0-*-*0-*0--.*--
-01----1.1.--0---*10--*1.0.----------
---1---.0*---------0-----1------1-*-0
---0--------------------*0--*--1-----
---1--.-0----0-.-0-0------0-..011*00-
-------.-------*-----.-----0--.-1----
-----------*---0---.-------------*.--
-------1-*1*-----------1*1.0---------
0---------1*0------1--1-0--------.---
---0-0----11-*---------1.---11-------
-----------*------------0-0------1---
---0-------1-----0--1*.-.1.1--.--1--0
0----------0--------------0-------1--
---------------0-0-0----*-----*----0-

*** Life<Cell> 28x49 ***

Generation = 0, Population = 2.
-------------------------------------------------
-------------------------------------------------
-------------------------------------------------
-------------------------------------------------
-------------------------------------------------
-------------------------------------------------
-------------------------------------------------
-------------------------------------------------
-------------------------------------------------
-------------------------------------------------
-------------------------------------------------
-------------------------------------------------
-------------------------------------------------
-------------------------------------------------
-------------------------------------------------
-------------------------------------------------
-------------------------------------------------
-------------------------------------------------
----------------------------------------------0--
-------------------------------------------------
-------------------------------------------------
-------------------------------------------------
-------------------------------------------------
-------------------------------------------------
-------------------------------------------------
-------------------------------------------------
-------------------------------------------------
-----------------------0-------------------------

*** Life<Cell> 31x37 ***

Generation = 0, Population = 23.
-------------------------------------
-------------------------------------
-------------------------------------
-------------------------------------
-------------------------------------
-----------------------0-------------
----0-0------------------------------
------0---------------0--------------
-------------------------------------
-------------------------------------
-------------------------------------
-------------------------------------
-----------0-------------------------
-------------------------------------
-----------------------------0-------
-------------------------------------
-------------------0------------0----
-------------------------------------
--------------------0-------------0--
-----------------0-------------------
-------------------------------------
--------------------0------0---------
----------0-----------------0--------
---------------0---------------0-----
-----------0----0--------------------
--------------0----------------------
-------------------------------------
----------------------0--------------
----------------------------------0--
-------------------------------------
-------------------------------------

Generation = 7, Population = 470.
---0--10-------------00--0-----------
--0--0-00-----------01*00-0----------
-0--1-.-10---------0000000-0---------
0--0--.--00-------01101*100-0--------
--1-1-----10-----00000-00000-0-------
00-0-01000--0---01*00-.-01*00-0------
00*-*1.-.0*--0--000000--000000-------
*0*0-0-0*---1--0-00*10-.-00*1--------
1-*--0.0---0--0-0-00000-0000--0------
00-0-0.---1--0-0-0--01*1011--0-00----
-01-10.*-0--0-0-0----00000--0-0110---
--00--1-1--0-0-0----1-0*1--0-00000---
---0---0--0-0-0--0-0-1-0--0-01100-0--
----0-1--0-0-0--0--00-10-0-00000-0-0-
--------0-0-0--0--1-1010--0-100-1.1-0
-------0-000--0--1----0-0--100-0-0-0-
--------01*0-0-0**0-.-00-0-0**100-0--
--------000---0*-----------0-*01000--
-------0-0-------------*-00110.10--0-
------0-00--0-11----1-0--0010*010---0
-----0-001*----0.-*1.---00001100-0---
----0-0000-0--.1..---0-.1*11010-0---0
---0-00*10-.*0.*-01----0-010-0-0-----
----0000--0*0-.-*1--0-0-0-0-0-0------
----01*001.-0--*0--0.--0-000-0-----0-
-----00-10**-1**10-1*00--1*10---0-0-0
------01-0**----*-0-*0--0-*00--0---0-
-------00-*-0-*-1--00--0-0-*-10------
--------01-0---0---0----0-0000-----0-
---------00----*--10-----0-0----0-0-0
----------0-----100-------0--0-0---0-

*** Life<Cell> 16x42 ***

Generation = 0, Population = 17.
--------------------0------0-0------0--0--
------------------------------------------
------------------------------------------
--0--------------------0------------------
------------0--------------------0--------
--------------0---------------------------
------------------------------------------
-----------------------------------0------
--------------0---------------------------
---0--------------------0-----------------
-----------------------------0------------
------------------------------------------
------------------------------------------
------------------------------------------
------------------------------------------
----------------0-------------0-----------

Generation = 10, Population = 194.
----------0-*----0--1*.-*----0...-*-.1.-.-
-01-10----0-1-*1.------1--0--11..11-------
----------11.--0--10001--0-1-.1-0.--.1*-.0
0-.-.10-.-.0*-*-01---01-11---*-001-1-.----
--1-.1.0-0.--0.*.0-0.-*--.-.-----1.-..---0
--.---0-*1--*0--.01*.-0.---*--0100-.1--*-1
----0-1-1-.-1-.-1-*10--0---.---.-.11-1-*-1
---.--1---*0--*0-0.---1-.0--*---1.1111-1-0
----0---0-1-1-*-----*1--01--0*1.0*----1--1
-01--0---0--*--10-.----0---100---1-------0
------0-----1------0--1*---0-0-----.1-----
0--10------0--0------1---0----0--*0-------
----------0-.-0------0-------0-0-*-0-0----
--00----0-----.-------00-----------1--0---
------------0--------------0---0-0--------
-0-0-00-0-0---------0-0-0--------0-0110-0-

Generation = 20, Population = 260.
.1-0.--1.-.0.....0.**.......-***......*...
..*-...*.**.......*..-.-..-.*****...1***-.
*-**.*-*.-*.....-...***0-...1..-**..*..**1
*-.....*.....1........**.......*...*-**-*.
.*....***.*..***...-.*..**.*0-.-*.***.*11.
....-....-...-****.**.*.*0**1..**...*10.-1
**.--****....**.**....*.1...-.1.*..-*..*0.
11.*...1.*..*1..-1.1**.1*..*.1*.......*.0.
.1**.***-*.*...*.-10*.*0**.....*..*-**..*.
.1*..-.-1*.**....-..*..**-.**...**0....1-.
0...--1.*--0*..1---*-1.*..1.......*.**.*..
-1.*.-..-*.1*.-*.11*-**.-.*-***1*.....1...
0-1*10*1.*.-.1....-.1.0--*...----**--****.
01-.-00..-.0*..0*--*0**.1*-*--.1.*..---.--
-1-0-*-1*1--...*-1---11-00-1...0-.***1.10-
---01*.0*--1..*-*---1-.----0--.-..-**...--

*** Life<Cell> 37x42 ***

Generation = 0, Population = 14.
------------------------------------------
------------------------------------------
------------------------------------------
------------------0-----------------------
------------------------------------------
------------------------------------------
--0---------------------------------------
-------------------------------0----------
-0----------------------------------------
----0-------------------------------------
------------------------------------------
------------------------------------------
------------------------------------------
------0-----------------------------------
------------------------------------------
------------------------------------------
----------0-------------------------------
------------------------------------------
------------------------------------------
------------------------------------------
------------------------------------------
------------------------------------------
------------------------------------------
------------------------------------0-----
------------------------------------------
---------------0--------0---0-------------
--0---------------------------------------
------------------------------------------
------------------------------------------
------------------------------------------
------------------------------------------
------------------------------------------
------------------------------------------
------------------------------------------
---------------0----0---------------------
------------------------------------------
------------------------------------------

Generation = 5, Population = 196.
------------------------------------------
--0---------------------------------------
-0-0----------0-------0--------0----------
-00----------0-0-----0-0------0-0---------
0-0-0---------0-------0--------0----------
00-0-00-----------------------------------
..--10-0----------0--------0-------0------
00---00----------0-0------0-0-----0-0-----
--1-0---0---------0--------0-------0------
--1------0--------------------------------
00-0--0-0----------------------0----------
-00-------0-------------------0-0---------
0---0----010-------------------0----------
-----0---0*0------------------------------
--0-0-----0-------------------------------
------0-------0---------------------------
-----0*0-----0-0--------------------------
-----010------0---------------------------
------0-----------------------------0-----
----------0------------------------0-0----
---------0-0---0--------0---0-------0-----
--0-------0---0-0------0-0-0-0------------
-0-0-----------0--------0---0---0-------0-
--0----------------------------0-0-----0-0
-----------0-------00---0---0-----------0-
0-----0---0-0-----0110-0-0-0-0-0-0--------
-0---0-0---0-------00---0---0---0---0-----
0-----0----------------------------0-0----
---------------0--------0---0-------0-----
--0-----------010---0--0-0-0-0------------
-0-0----------010--0-0--0---0-------------
--0------------0----0---------------------
------------------------------------------
-----------0----0--0----0-----------------
----------0-0--0-11-0--0-0----------------
-----------0---00--00---0-----------------
--------------0-0--0-0--------------------

Generation = 10, Population = 236.
1.*11-------------------------------------
--1---0---0-------0-------0---------------
-.0---------------------------------------
--------0---0---0---0---0---0-------------
1--11-----1-------------------------------
-*0-*1.---1-------0----0--0------------0--
**....--110-0-----------------------------
1*0..1.-----0--------0---0-----------0---0
-**-----1-.11-----------------------------
-0.0-1----*---0---0----0---------------0--
--0-11---00-------------------------------
10.-------.-0-0-0---0---------------------
--1-----00.01-----------------------------
0-*----0-1*1*1--0-0------------0----0-----
111-00-0--*-------0-----------------------
0---1-*--0-0--00--------0---00---00---0---
1-.-01.1-0------0---0---------------------
--0-.1*01----0---0----0-------00----0-----
010-1-.-----------0-----------------------
----0-1--------0--------0---0-------------
--0---------------------------------------
----0---0-------------------0-----------0-
----------0-------------------------------
------00--------0---1--0--0---0-0---0-0---
----0---0-0-0--0--------------------------
-----0---0----0---**.-1--0--0-0-------0-0-
--0---0-0-0-00---00-.-0-------------------
-------0--------0---1--0--------0---0-----
----0-----0----.----1---------------------
------------------------------------0-----
--------------------0---------------------
--------------0*000-----1---0-----0---0---
--0----0----00-**11*.-00----1-------------
-------------0-*1..0--0-------0-----0-----
0---00---00----*1..-.0---00---0-----------
----------------0--0----0---1-------------
--0----0----0---1--1---0----0-------------

Generation = 15, Population = 769.
*..-.1***-10-----------0------0--------0--
10.0*-*---*00---------0-0----0-0------0-0-
1*.0.00--*1010-------0-0-0--0-0-0----0-0-0
1-*0.-0-1---100-----0-0-0-00-0-0-0--0-0-0-
--.**11-***-0010---0-0-0-0000-0-0--0-0-0--
-*.0*..0--*-1--00-0-0-0-001100-0--0-0-0---
.**.*.-*.-*-*-1-1--0-0-00000000--0-0-0----
1**..-.1--*-0010110-0-001*.1*10-0-0-0-----
-*..----1.**1*1**-00-000000000-0-0-000----
11.-**1*.*.-11--1--1001100110-0-0-01100---
***..-1--.--.1--00--0000-00000-0-0000000--
...*-1-1--.-.-1-00*--*1-0-00110-01100**00-
--*11-*-10.-.**--0*----0-0-000000000000000
.*.--*.**-*..*--1*.*-0--0-0-001-1001100110
*--0-1.1--.--010-01-00---0-0-0-0-00000000-
--1-1-.1-.**--*-1-**--0---0-1*1-**.10110--
**.--1.*1*****.0--0----0---00000-0-0000---
01*-.-**.---00.0-1--.---0-0*101.*-1-10----
**1-*1.*000--0*-----------00000000-0------
0--**..*1--000-1-0------00-00**0011--0----
-*--**----.-1-0---00-0-0000-0000000-0-0---
1---*0---*1011----**0-01.*00-00*10---0-0--
-*10*--0-0*011--01-0-01-00000-000-----0-0-
----*-.*-0*11-0--*1*--1*101100-0-------0-0
-01--0*00-1*-01--0--1---0-00000-0-------0-
0-00-*00-1--1--01-.*.*.**00..*00-0--------
-0-01-1------.1-11-1*..1-01-000-0-0-----0-
--0-00---0-*----*0**..---0-*-0-0-0-0---0-0
---0-0--0----1-*-.*-*---*-0-100-0-0-0-0-0-
----0101-1---*-.0..**-101*-0.000-0-0---0--
----1**1*----.1-..-*-0.11110.0100-0-------
---0-00*00-1.*..1.0-0--*-0-0.01000-----0--
--1-1-11-1-.*0*..****--**0-0.--010----0-0-
-000-0--0-01-...*..1-1**10--.-10.-1--0-0-0
1*01.*---*-*.**.***..***1**---*0-0-00-0-0-
0000------00-11-0...-.---00-.-00*-10-0-0--
-01--------*011...1*---0---*.0--100---0---

Generation = 20, Population = 545.
*..*.****-1*000---------------------------
.-.1...---.-0-----------------------------
*.*0.1.-1*.*------0-------0---------------
*1.*.-*..--0.-.1-----------0--01----010---
...*.*.1...-11.0*00-------000-------------
-**1...11*.111**--1-1---10*.-0------------
......-*..***..--*1------0--11------1-----
.**....*-0.-*-.***------1....11-1*0..*.-10
-.*.**..1*......*0.--00-*0--11------1-----
-..*.....*.--*11*0-**01--0*.-1--1---.-----
..*..1**1.-...11.-0-00----001----00-------
..*..1.-*.**.-..--.11.11---1---0---00..---
-1*..-.1*1*-...-**.*---1-------01--0------
.***1...*.*...-0*.*..1*.*11-0-10-1-11-----
.---*...-1*0*1..-1.-*-101----01-0.*-*-0---
001-.***.*..0-.*.1..*0-------.1*..*.-**0--
..**-1..*..*....***0--*-1--10**--.--*-0---
*-*-....***-*..1010***----1*11..*---1-----
*.*-**..1-----.--0-0000-0--100***10-------
1-0.**..1*-.*00.--0*1-0-00---.*-11-0------
-.0-..--.**010--.-*1*1*-*1-1-0-0000-------
-*11.-.*...11---.*..1-0-..01-0-*-1--------
...-.1--0.*-*--**.*1-1.10-----------------
-0-0...*--**.*..-....-1**-1.-01.*.-10-----
1**-1-.1-1-.*1--1.---.*-0-*-**--1---------
01-0-*.0.1--1--1**.**.*.**1...-.---0------
-00-.-.-1*1.**1-.*......-....**11---------
----*1.-0-0..-*1.*....-...-.---01---------
-00---..11**-.-...*-..0**-**.0------------
--1-0-.-----0.-****..0.11....*.-----------
---11**..1001*-1..-*1**..*****-0*0--0-----
---00-0.*-......*.1---0**0-..-.1*00-1-----
01...-**-*-........*.01**.1-.*..*0-1*-----
1-10-.---0*-*....*.*-..*-.**.-.**--*11----
1*-..*..-.*.*.........*..*..**..*---.1--0-
0-0----**1*.-..-..*.1.-.1*1**0-..0.-----0-
-0-111.0*0-.-.1***..-***.***.--1*-1-1-----

Generation = 25, Population = 555.
.........0.**--110100---00-11-------------
.-.-.**0**.-.--*-0---0-0*1*-0*-1------1---
.....-*......-..-*--1--011001*-*0-0-0-----
....*....-......1--*---.-0.1-.-.*---*-.-1-
...*....*..0*-*1.0***---.001--*-1-0-**----
1..-*....***....-0--*-1..1...**01.1-..1-1-
....*.-...*...*1-.*1.11-*.-...0--1*--1--0-
...*****.-.-*-.*..*-.-0-....*..*..1....*..
-......*.....***...11.--.1*.**-*0----10-0-
1....*.....1**...1-*.--.--.*..-1.*-1.*-0--
**...-...*-*..-...---1--1--*.1*1---1.0*--0
*......1.**...*..-..-...---.-1.*1*.-*..1-1
0.**.-*..**1...-..**--.*--1*-*0.**.-*-0--0
....-..**.....-1..**.....-.11-.0*.--.01*-0
.-1-....**.1....-..*.0*-*1.10***-**-**1-*0
*1--....*..**0.*.1**.*...--.1....***-.*.--
*...**.*..***...**.-1..*-*-.*.**-.*...1**0
*1*-***...*0***.*.-.*..---...*.*.*.*..--10
..*1..*.**-0**.*----*---**---...*..0--0-0-
.-0.*...*..*.-**-.-***10---11..-.*.-*--0--
0*--..--...1-1-1*-*..*.1*11.-110101.11----
-**..0*...*.**1...*..-***.*.-.-...----0---
...0..--1..-***.....11.-10-.*01**-.--0-00-
--.-...*-*.*....-..*..**.1..-1*.*...1.1*10
-..01-.1.*-....1.*.....*..*-*.--..--*0--0-
-*-0.....*.--.1.**....**..*.*...**-.--0-0-
-**0.**.-.-...-......**.1.*.....*.-----0--
1---.*.0*-.*.-....**.*1..*1.-.10...-10----
..11-..*11*.0*-...**...**0.*..---1-1.-----
--...**1.-11.*.*..*..-**1.*...*11-*--*0---
-0-....*.*1-.**...1*-....***..-1.---*0----
-**-*.1...*..***..-.**-***-..-.*.0---.1-0-
-.....*.-.****.......-*.*..*...**---...0*-
-*..*.-..*..**......-...1....-.*.--*..*.--
*.-.....***.*...***.*.***.......*.--...-*-
.-*.*.1.**.**..0...*-......***-..-.0.*.010
0-*.-..0.-1.-.......*.....*.*-*..***1-10--

*** Life<Cell> 18x31 ***

Generation = 0, Population = 16.
-------------------------------
------0-----------------0------
----------------0--------------
-------------------------------
0---------------0--------------
-------------------0-----------
------------------------------0
----0--------------------------
---0---------------------------
-------------------0-----------
--0----------0-----------------
-------------------------------
------------------------0------
-0-----------0-----------------
------------0------------------
-------------------------------
-------------------------------
-------------------------------

*** Life<Cell> 45x50 ***

Generation = 0, Population = 4.
--------------------------------------------------
--------------------------------------------------
--------------------------------------------------
--------------------------------------------------
--------------------------------------------------
--------------------------------------------------
--------------------------------------------------
--------------------------------------------------
------------------------------0-------------------
--------------------------------------------------
--------------------------------------------------
--------------------------------------------------
--------------------------------------------------
--------------------------------------------------
--------------------------------------------------
--------------------------------------------------
--------------------------------------------------
--------------------------------------------------
--------------------------------------------------
--------------------------------------------------
--------------------------------------------------
--------------------------------------------------
--------------------------------------------------
--------------------------------------------------
-------------------------------------0------------
--------------------------------------------------
--------------------------------------------------
--------------------------------------------------
--------------------0-----------------------------
--------------------------------------------------
--------------------------------------------------
--------------------------------------------------
--------------------------------------------------
--------------------------------------------------
--------------------------------------------------
--------------------------------------------------
--------------------------------------------------
--------------------------------------------------
--------------------------------------------------
--------------------------------------------------
--------------------------------------------0-----
--------------------------------------------------
--------------------------------------------------
--------------------------------------------------
--------------------------------------------------

Generation = 7, Population = 243.
--------------------------------------------------
------------------------------0-------------------
-----------------------------0-0------------------
----------------------------0-0-0-----------------
---------------------------0-0-0-0----------------
--------------------------0-0-0-0-0---------------
-------------------------0-0-0-0-0-0--------------
------------------------0-0-0-0-0-0-0-------------
-----------------------0-0-0-0-0-0-0-0------------
------------------------0-0-0-0-0-0-0-------------
-------------------------0-0-0-0-0-0--------------
--------------------------0-0-0-0-0---------------
---------------------------0-0-0-0----------------
----------------------------0-0-0-----------------
-----------------------------0-0------------------
------------------------------0-------------------
--------------------------------------------------
-------------------------------------0------------
------------------------------------0-0-----------
-----------------------------------0-0-0----------
----------------------------------0-0-0-0---------
--------------------0------------0-0-0-0-0--------
-------------------0-0----------0-0-0-0-0-0-------
------------------0-0-0--------0-0-0-0-0-0-0------
-----------------0-0-0-0------0-0-0-0-0-0-0-0-----
----------------0-0-0-0-0------0-0-0-0-0-0-0------
---------------0-0-0-0-0-0------0-0-0-0-0-0-------
--------------0-0-0-0-0-0-0------0-0-0-0-0--------
-------------0-0-0-0-0-0-0-0------0-0-0-0---------
--------------0-0-0-0-0-0-0--------0-0-0----------
---------------0-0-0-0-0-0----------0-0-----------
----------------0-0-0-0-0------------0------------
-----------------0-0-0-0--------------------------
------------------0-0-0---------------------0-----
-------------------0-0---------------------0-0----
--------------------0---------------------0-0-0---
-----------------------------------------0-0-0-0--
----------------------------------------0-0-0-0-0-
---------------------------------------0-0-0-0-0-0
--------------------------------------0-0-0-0-0-0-
-------------------------------------0-0-0-0-0-0--
--------------------------------------0-0-0-0-0-0-
---------------------------------------0-0-0-0-0-0
----------------------------------------0-0---0-0-
-----------------------------------------0-----0--

*** Life<Cell> 36x24 ***

Generation = 0, Population = 1.
------------------------
------------------------
------------------------
------------------------
------------------------
------------------------
------------------------
------------------------
------------------------
0-----------------------
------------------------
------------------------
------------------------
------------------------
------------------------
------------------------
------------------------
------------------------
------------------------
------------------------
------------------------
------------------------
------------------------
------------------------
------------------------
------------------------
------------------------
------------------------
------------------------
------------------------
------------------------
------------------------
------------------------
------------------------
------------------------
------------------------

*** Life<Cell> 9x48 ***

Generation = 0, Population = 1.
------------------------------------------------
------------------------------------------------
------------------------------------------------
------------------------------------------------
------0-----------------------------------------
------------------------------------------------
------------------------------------------------
------------------------------------------------
------------------------------------------------

Generation = 8, Population = 4.
------------------------------------------------
------------------------------------------------
------0-----------------------------------------
------------------------------------------------
0-------------0---------------------------------
------------------------------------------------
------0-----------------------------------------
------------------------------------------------
------------------------------------------------

Generation = 16, Population = 4.
------0-----------------------------------------
------------------------------------------------
------------------------------------------------
------------------------------------------------
--------0-------------0-------------------------
------------------------------------------------
------------------------------------------------
------------------------------------------------
------0-----------------------------------------

*** Life<Cell> 47x31 ***

Generation = 0, Population = 33.
-------------------------------
--------------0----------------
-------------------------------
-------------------------------
---------------------0---------
-0----------------------0----0-
------------------0-------0----
-------------------------------
--0-----------------------0----
-------------------------------
-------------------------------
-----------------------------0-
-------------------------------
-------------------------------
-------------------------------
------------------------------0
------0------------------------
------------------0-------0----
-------------------------------
-------------------------------
------------------------------0
-----------------0-------------
-------------------------------
-------------------------------
-------------------------------
------0------------------------
-------------------------------
-------------------------------
--------------------------0----
----------------0--0-----------
-------------------------------
-00----------------------------
---------0---------------------
-------------------------------
-------------------------------
--0-----------------0----------
-------------0-----------------
-------------------------------
-------------------------------
-------------------------------
--0--0----0--------------------
-------------------------------
-------------------------0-----
---------0---------------------
-------------------------------
0------------------------------
-----------------------0-------

*** Life<Cell> 43x43 ***

Generation = 0, Population = 25.
-----------0-------------------------------
-------------------------------------------
-------------------------------------------
0------------------------------------------
------------0------------------------------
-----0-0-----------------------------------
-------------------------------------------
-------------------------------------------
-------------------------------------------
-------------------------------------------
-------------------------------------------
-------------------------------------------
-------------------------------------------
-------------0-----------------------------
------------------------0------------------
-------------------------------------------
----------------------------------------0--
-------------------------0-----------------
-------------------------------------------
-------------------------------------------
-------------------------------------------
-------------------------------------------
-------------------------------------------
------------------------------0------------
-------------------------------------------
----------------0--------------------0-----
-------------------------------------------
-------------------------------------------
---------------------0--------------------0
-------------------------------------------
--------------------------0----------------
-------------------------------------------
-------------------------------------------
-------------------------------------------
---------------0-------------------------0-
-------------------------------------0-----
-------------------------------------------
-------------------------------------------
---------0-0-------------------------------
--------------------0------------------0---
-------------------------------------------
-----0------------0---0--------------------
-------------------------------------------

Generation = 2, Population = 90.
---------0-0-0-----------------------------
0------------------------------------------
-----------00------------------------------
0-0--0-0-----------------------------------
----------0---0----------------------------
0--0-0-0-0---------------------------------
------------0------------------------------
-----0-0-----------------------------------
-------------------------------------------
-------------------------------------------
-------------------------------------------
-------------0-----------------------------
------------------------0------------------
-----------0---0---------------------------
----------------------0---0-------------0--
-------------0-----------0-----------------
------------------------0-------------0---0
-----------------------0---0---------------
----------------------------------------0--
-------------------------0-----------------
-------------------------------------------
------------------------------0------------
-------------------------------------------
----------------0-----------0---0----0-----
-------------------------------------------
--------------0---0-----------0----0---0---
---------------------0--------------------0
----------------0--------------------0-----
-------------------0---0--0-------------0-0
-------------------------------------------
---------------------0--0---0-------------0
-------------------------------------------
---------------0----------0--------------0-
-------------------------------------0-----
-------------0---0---------------------0---
-----------------------------------0---0---
---------0-0---0-------------------------0-
--------------------0----------------0-0---
-------0-0-0-0-----------------------------
-----0-------------------------------0---0-
---------0-0-------------------------------
---0---0--------0---0---0--------------0---
-------------------------------------------

Generation = 4, Population = 88.
-------0----0--0---------------------------
-----0-0-----------------------------------
-----------*-------------------------------
--0-1--------------------------------------
--------0--1----0--------------------------
-1-0-----0-0-------------------------------
-------------------------------------------
0------------------------------------------
------------0------------------------------
-----0-0-----0-----------------------------
------------------------0------------------
-------------------------------------------
----------------------------------------0--
---------0-------0-------0-----------------
--------------------0-------0--------------
-------------------------------------------
------------------------------------0-----0
-------------0-------0-------0-------------
------------------------0------------------
------------------------------0------------
----------------------------------------0--
----------------0--------0-----------0-----
-------------------------------------------
--------------------------0-------0--------
---------------------0--------------------0
------------0-------0------------0-------0-
--------------------------0----------------
------------------------------0------------
-----------------0-------1------------0-0--
----------------0--------------------0-----
---------------0------1-------0----------1-
-------------------------------------0-----
---------------------0--------------------1
-------------------------------------------
---------0---------0------0----------1---0-
--------------------0------------0-----*-1-
-------------------------------------------
-----0------------0---0--------------------
-----1-0-----0---------------------------1-
----------------0-------0----------0-0-----
-------------------------------------------
-0---0---1----0-----------0----------------
---------0-0-------------------------------

Generation = 6, Population = 287.
-----1-*-0010110-0-------------------------
--0010-*-0---------------------------------
-------100-.*0-00--------------------------
01001100-0-0-------------------------------
------0--01.-00---0------------------------
110010-0-0-*-0-----------------------------
--------0--10---0--------------------------
0100-0-0-0-0-0-----------------------------
----------0---0---------0------------------
0--0-0-0-0-0---0---------------------------
------------0---------0---0-------------0--
-----0-0-0---0---0-------0-----------------
--------------------0---0---0---------0---0
-------0---0---0---0---0---0---------------
------------------0---0---0---0-----0---0-0
---------0---0---0---0---0---0-------------
--------------------0---0---0-----0---0-0-0
-----------0---0---0---0---0--10-----------
----------------------0---0---------0---0-0
-------------0--0----0---0--01--0----0-----
------------------------0-------------0---0
--------------0---0----0--10--0---00---0---
---------------------0------------------0-0
------------0---0---0---01--0---01--00---0-
-------------------0---0--1-------------0-0
----------0---0---0---0---1---00--10---0---
-----------------0---0--01--0---------0-0-0
------------0---0---0-------0---00---0---0-
-------------------0--00--10--1-----0-0-010
--------------0---0-----------1----0-0-0---
-------------0------01--00--0---0-----001-1
----------------0------------------0-0-0---
---------0-----0------10--0---0------1--0-1
--------------------0------------0---1-0-1-
-------0---0-----0------0---0------0------1
-----0-------------------------0---0-1-.-.-
-----1-0-0---0-----0------0----------0-----
---0---1------------0------------0-0-0-0-1-
---0-.-0-0-0---0-----------------------0---
-0-------0-----------------------0-0-0-0---
-----1-0-1-0-0---------------------------0-
---------.-10---------------0------0-0-----
-------0-----0-----------------------------

Generation = 8, Population = 105.
---1-.0.0--1-------0-----------------------
-----00*1----------------------------------
-------.-*-.**-----------------------------
*-----*-1----------------------------------
----0----*..-0------0----------------------
.1---------.---0---------------------------
-----------.------------0------------------
-------------------------------------------
-----------1----------------------------0--
-------------------------0-----------------
-------------------------------------------
0------------------------------------------
------------0------------------------------
-------0-------------0---------------------
----------------0---------------0----------
------------------------------0------------
--------------------------------0-----0----
----------------10------------.--0---0-----
-------------------------------------------
-----------------------------.-------------
---------------------1--------------------0
-------------1------------.----------------
------------------------1-1----------------
----------------------0--.-------.----1----
--------------------------.-------------0--
--------0---------------10.--1----.------0-
---------------0---------.---------------1-
-------------------------------------0-----
-------------0------------.--1.---0-0----.-
------------------------------.------------
---------0-0------1--.------------0-----.--
--------------------1---------1--------*---
----------------------.--------------------
-----0----------0-0---1--------------.-0-1-
-------0---------------1---------1---1-----
-----------------------------0-------.-.-.-
-----.---------------0--------------------0
-----*------------0---0----------------*-1-
-1---.-*---------0-0------0----------------
------------0-------0-------0--0-----------
-----1---*-*-------------------------------
-0------0*---10-----------0---0------------
---------1-----0-------------------------0-

Generation = 10, Population = 305.
-0-1-.-**-111----0-0-0---------------------
0--1*--.--0111-----------------------------
---00--.1*1...-1---00----------------------
.*0-**.--1-010-0---------------------------
1-0---*0-...10-1--0---0-0------------------
*1-0--0-0-0.-*---0-------------------------
0---0----0-.-0------0-0---0-------------0--
-1-------------0---------0-----------------
---------0---0----------0-------------0---0
0----------------------0---0---------------
-----------00---------------------------0--
0-0----0-------------0---0-----------------
----------0---0-0---------------0----------
0----0---0---------0---0------0------------
------------0-0---0-----------1-0-0---0----
-------0--------10---0------0---00---0-----
----------------1-------------1-0-0-0---0--
--------------01.-10----------.1-------0---
---------------------0----------0-----0---0
-------------0--00-----------.---0---0-----
-------------------0---00---------------0-0
-----------0---0------0--0.1----------0----
---------------------01-1---0-----------0-0
--------0----0------0----.---0---.--1---10-
---------------0--------1-*-----------1--00
------0---0------------1.-.0---1--.--000---
-----------------0------**---1----0-0--01.-
--------0---------------0----10----0---0-*-
---------0--------0-------.1-1.-0---0-0--.-
--------------------0---------.------0-1---
-------0-0-0----0---*.-------0--0-0-----.--
-----0----------0-----0-----0---0----1-*---
-------0-0-0------1--0.----------00--------
---0---1------0-0-0-0-1-0----00-----0*1--1-
-----1---0---------------0-----0-------*--1
-----1----------0----------0---0----0.0*-.-
-0--0.0----------0--------0------0------0-0
---1-*-*----0---0---0---0---00-0-----1-*-1-
---10.1.---0---0-0-0----0---1-------------0
-1------010--1---------------1---0-----1-0-
-1-0---0-.-*-1-0-0-0------1--------------0-
---0--01-.1--.-00---0---0---0--10----------
-----0-0-.---1-0-0---------------------0-0-

Generation = 12, Population = 353.
---*0.-..--*-11-----0--0-------------------
0-**.-1*-0****1----------------------------
1--0*00.*.-...-.-0-*----0------------------
..01...-1.1-*-00---------------------------
*-*01-.*-...-*1.10-1----0---------------0--
..-0-----*-.-.1----0-----0-----------------
--0------0-.**------0-------0--------------
-1----0-0-0--------------------------------
1---0--0-0-110-1----0---------------0-----0
-1-----0-------0-------------0-------------
----------------0-------0-------0----------
--0-0-------------------------0------------
--------0--1----0---------------0-----0-0--
---0-------0----1----------------0---0-----
------------0-------0-------1-.-----0------
0-------------------------0---0---1--------
------------0---.----1------1-----0-0------
-------0----0--..-.-1-------00.-10---0---0-
----------------1-------0-------0----------
----------------------0--0-0-.--------0----
-----------------1------*00-0---0----------
--------00------1------010.1-----0---1---0-
---------------1----0-1-101---0----------1-
------------------0----01.10-----.0--*----1
-------------1-------0----.--1--------.----
----0-------00------00-1*-.0--*---.1-*---*-
---------0--------10--0-..11-.-1-----0--..-
--------------------0-01*---*.*-*1----0*-*-
---------0-------1------11.--..-0-----011*1
-----0--0-------1-1-*---0-0-00.-0------1-0-
-----1-------00----1..*------011-0----1-.--
----------------*-----0---0--01---00110*---
-------------0----.1--*1-0---1----*111-1--1
-0-----.-0--0-0-------1-0-0-------11*..-1--
-0-11.11-0-------01--0-1--11-1---10----.---
---0-*-0----0---------0--1--1-1*-10--.*.0*0
--1--.-100-0-----0-------1---------0--1-01-
---.-.0*-----1--0-------------0----0110*---
-*11-*1.-*-0-1-------00-----.-0--1-------*-
-.-0-0--*1-1-.-------------0-1--1--0-------
-.--110*0.-.0.-------0-------------------*1
----1--.-.-11**--1-------------.--0----1-0-
-0-----*-*---1---0--------0----------0---0-

*** Life<Cell> 23x30 ***

Generation = 0, Population = 7.
------------------------------
------------------------------
------------------------------
------------------------------
------------------------------
------------------------------
--------------------------0---
------------------------------
------------------------------
------------------------------
------------------------------
---------0--------------------
------------------------------
----------------------------0-
---------------------------0--
------------------------------
------------------------------
----0--0----------------------
------------------------------
------------------0-----------
------------------------------
------------------------------
------------------------------

Generation = 5, Population = 86.
------------------------------
--------------------------0---
-------------------------0-0--
--------------------------0---
------------------------------
----------------------0-------
---------0-----------0-0------
--------0-0-----------0-------
---------0------------------0-
--------------------------0--0
-----0-------0-----------011--
----0-0-----0-0-----------00--
----00-0-----0----------0---0-
---0-00-0----------------0-0--
----0--0-0--------0---0-------
--------0-0------0-0---0-----0
0--0----00-0------0---------0-
-00-0..0-00-0----------------0
0--0----0--0--0-------0---0---
-------------0-0-----0-0---0--
----0--0------0-------0-------
---0-00-0---------------------
----0--0----------------------

Generation = 10, Population = 94.
------------------------0-0-0-
---------0--------------------
--------------------------0---
-------0---0----------------0-
------------------0-------00--
---------0----------------1---
----------------0---0---01--00
----0--0--------------------0-
------------------0-------01--
-00--11--0-------00-------.---
-------------------------.----
---1.--0-------01--1----1-----
-------------------0-----01---
-0---01----------0--------1---
-----------------0---0-00--10-
-----.------0--0----0---0-----
--01-11------------0-----00---
--..-..*.-1--**--00-------0---
--01-11-----------------------
----*..-*..*---00---0---0-----
-----11--------------------0--
--0-1..1--0-------0-----------
-----00------------------0-0-0

Generation = 15, Population = 284.
-----0-------0---0-------0--0-
----0-0-----0-0-0-0-----0-1--0
---000-----0-0---0-0---0-1-10-
--01*0----0-0-----0-0-0-1--00-
-0000-0----0------10---1-01*-1
0110-0-0---------1-0------.--0
000---0-0--0----1-000----.--0.
-0---0-0-0--0--1-1**00-0--*--0
-00-010-0-0--01-0-*-00---1*.01
***.**.--0-0-010-*-0-----1.---
00*0111---0---001-*.1---0..-*-
0.-*.1--0-----.1*-**0---*0-*--
--0-.-1---------00110-*--1----
0-01-.*00----0*-.100-1-01-.0--
--*1--------00**0.-1-*0*1*1*1-
0-01-.*--1--10---1--0-00*010-0
....-*.---1--..---0----10**10-
1*.......-.-1**..*101---00.-0-
.-..1**-0-*0-**1*-01-1-1-*-1-1
--*-...*.**..10---0-1---000-1-
-*.-0.*1***1**--0001----00-1--
--1-...1-.-*---00-00---0--1---
0-0-**.-.00--00--0--0-0-------

Generation = 20, Population = 270.
-----------------------010.00-
0--1-..10--0-----------01-.0--
-----1----0-----------00-.---*
--0-.--------00--1---1101-..-*
-0----00----------*-1001.*-.1*
0---1--10--------.--1--.--..*1
000--1.100----0-1-----1.-...1*
.00--*0*-11--0111*..-*1-.1*-.1
-1**01**--01-0*1--.1-1.0*1..-*
.**...*-**.---.1-.0--.---**.-.
1*****...---1*.--.*.*.---*....
*.....-01*----...*..*-.*.0-*-.
0.*1***1-0-0--1.-.**...--...0-
--.--..-*---10.1.*.*1.-0.-.-1-
10...---11---1....0*0*1**.**..
0*---*.**101.**.*-**0-00.-1.10
.****..1*-1*...---.11-*--..*-0
..**.**.*0.-.*******.*-*11*0.-
***.*..*0..1-****-**-1110**1--
-..**..*......-**-0-*-1*-0.*1-
-..*1..-......1.--*-1---10-*--
--.**.**-*..-1*-----0--0-1.-1-
1.**..***.-**1.*------0-------

Generation = 25, Population = 283.
0---*0-01-.00--0-01-0-01*-.0.0
11--.*.*.010-00-----0--*--*-1.
*1-.**--1---1-00*0--00*1-.--*.
*-1..10-0---.-***1*-01*0....0.
*-011*-1-0-----1--.-1.*1....-.
**--1-..0*-0*--1-.-*.-1*-1....
0-0.-..*11-0.1*..0-10...1.....
*..*-.****.1-.-***..-*-.*-.-.-
*.**-...1*1*--**-*..0......**.
..*.*.*1...---.**.1.-.-*-.**-.
.....**.*1.1....1..*..--.**.*.
..*...1--.-*1..**.***....-*...
1**...*..--..-1.1**....*0*...-
11.-***...*-.-**..*.*.-**.*-.*
1-**..1...-.-1....0.*.*.*....*
-.01***....1...*.-.*.11-***.*0
*.....*1.--...*0-*..**..**..0*
**.**......1.**.....*.*.*.**.*
..****..0*.-..**.-...1*...*..1
**.****..*....-..11*.-*.-0....
**....*.......*.1.*1---0*1**0-
-1...***......*--1.1.*0--..---
*.....**.*1..*...---0--***-100

*** Life<Cell> 47x11 ***

Generation = 0, Population = 2.
-----------
-----------
-----------
-----------
-----------
-----------
-----------
-----------
-----------
-----------
-----------
-----------
-----------
-----------
-----------
-----------
-----------
-----------
-----------
-----------
-----------
-----------
---------0-
-----------
-----------
-----------
-----------
-----------
-----------
-----------
-----------
-----------
-----------
-----------
-----------
-----------
-----------
-----------
-----------
-----------
-----------
--0--------
-----------
-----------
-----------
-----------
-----------

Generation = 3, Population = 27.
-----------
-----------
-----------
-----------
-----------
-----------
-----------
-----------
-----------
-----------
-----------
-----------
-----------
-----------
-----------
-----------
-----------
-----------
-----------
---------0-
--------0-0
-------0-0-
------0-0--
-------0-0-
--------0-0
---------0-
-----------
-----------
-----------
-----------
-----------
-----------
-----------
-----------
-----------
-----------
-----------
-----------
--0--------
-0-0-------
0-0-0------
-0-0-0-----
0-0-0------
-0-0-------
--0--------
-----------
-----------

Generation = 6, Population = 22.
-----------
-----------
-----------
-----------
-----------
-----------
-----------
-----------
-----------
-----------
-----------
-----------
-----------
-----------
-----------
-----------
---------0-
-----------
-------0---
-----------
-----0-----
-----------
---0-------
-----------
-----0-----
-----------
-------0---
-----------
---------0-
-----------
-----------
-----------
-----------
-----------
-----------
--0--------
-----------
0---0------
-----------
0-0---0----
-----------
0-0-0---0--
-----------
0-0---0----
-----------
0---0------
-----------

Generation = 9, Population = 31.
-----------
-----------
-----------
-----------
-----------
-----------
-----------
-----------
-----------
-----------
-----------
-----------
-----------
---------0-
--------0-0
---------0-
-----------
-----------
-----------
-----------
-----------
-0---0-----
0-0-0-0----
-0---0-----
-----------
-----------
-----------
-----------
-----------
---------0-
--------0-0
---------0-
--0--------
-0-0-------
--0--------
-----------
-----------
-----------
-----------
-----------
----0-----0
---0-0---0-
----0-----0
-----------
--0--------
-0-0-------
--0--------

Generation = 12, Population = 28.
-----------
-----------
-----------
-----------
-----------
-----------
-----------
-----------
-----------
-----------
---------0-
-----------
-----------
-----------
-----0---0-
-----------
-----------
-----------
-0---0---0-
-----------
-----------
-----------
-----0---0-
-----------
-----------
-----------
-0---0---0-
-----------
-----------
--0--------
-----0---0-
-----------
-----------
0-----0----
---------0-
-----------
-----------
--0-0-----0
-----------
-----------
-----------
0-0---0----
-----------
-----------
-----------
0-0-0-0---0
-----------

Generation = 15, Population = 73.
-----------
-----------
-----------
-----------
-----------
-----------
-----------
---------0-
--------0-0
-------0-0-
------0-0--
-----0-0---
----0-0----
---0-0-----
--0-0------
-0-0-------
0-0--------
-0---------
-----------
-0---------
0-0--------
-0-0-------
--0-0------
-0-0-------
0-0--------
-0---------
--0--------
---0-------
----0------
-----0-----
------0----
-------0---
--------0--
---------0-
----------0
-----------
----------0
---------0-
--0-----0--
-0-0---0-0-
0-0-0-0-0-0
-0-0---0-0-
--0-0---0-0
---0-0---0-
----0-0----
-----0-0-0-
------0---0

Generation = 18, Population = 27.
-----------
-----------
-----------
-----------
---------0-
-----------
-------0---
-----------
---------0-
-----------
-----------
-----------
-----------
-----------
-----------
-----------
-----------
-----------
-----------
-----------
-0---0-----
-----------
-------0---
--0--------
-0---0-----
0---0------
-----------
--0--------
-----------
-----------
-----------
-----------
-----------
-----------
-----------
--0--------
---------0-
0---0------
-------0---
--0-0-----0
---------0-
--0---0-0-0
-----------
----0-----0
-----------
-----------
-----------

Generation = 21, Population = 87.
-----------
---------0-
--------0-0
---------0-
-----------
-----0---0-
----0-0-0-0
-----0---0-
-----------
---------0-
--------0-0
---------0-
-----------
-----------
-----------
-----------
-----------
-0---0-----
0-0-0-0----
-0---0-----
--0--------
-0-0-0---0-
--0-0-0-0-0
-----0---0-
0-----0----
-------0---
--0-0------
-0---0-----
--0--------
-0-0-------
--0--------
-----------
--0--------
-0-0-----0-
--0-----0-0
---------0-
0---0-0---0
-0-0-0-0---
0-------0--
-----0---0-
0-0---0----
---0-0-0-0-
0-0---0-0-0
---------0-
----0-----0
---0-0---0-
----0-----0

Generation = 24, Population = 28.
---------0-
-----------
-----------
-----------
-----------
-----------
-0---0-----
-----------
-----------
-----------
-----------
-----------
-----------
-----------
-0---0---0-
-----------
-----------
--0--------
-----------
-----------
-----------
-----------
-0---0-----
-----------
-----------
----0-----0
-----------
-----------
-----------
--0--------
-0---0---0-
-----------
-----------
--0-0-----0
-----------
-----------
-----------
----0-----0
-0---0-----
-----------
-----------
----0-----0
-----------
-----------
-----------
--0-0-----0
---------0-

*** Life<Cell> 5x18 ***

Generation = 0, Population = 23.
0------0--0-------
---0---000-000-0-0
---0--0-0---------
--0---------00---0
-0------0---0-0---

Generation = 6, Population = 39.
---.--..0*-0*-----
----..--1--.-.-.1-
.01-*1*.*-0110----
.-*-00*10---**-*0-
0*1*10-*-101.10-*-

Generation = 12, Population = 32.
0*-.*-..0..-**01--
-*.-.*.**.1......-
.-.-..***-.**-1111
.-..*0..-..1**.*0*
-....-..0.-..-.-*-

Generation = 18, Population = 14.
.....*..1..-.**.--
-..-....*.-..*...*
.....*...*...0.*.*
........*..-....-.
-.......0.-..-.-.-

Generation = 24, Population = 18.
........**...****1
-..-...*....*...**
..........*..-..*.
.......*...1...*-.
-.......*.-..-.1.-
